{
    "actions": [],
    "autoname": "HR-EINV-.YY.-.MM.-.#####",
    "creation": "2018-04-13 16:13:43.404546",
    "doctype": "DocType",
    "editable_grid": 1,
    "engine": "InnoDB",
    "field_order": [
     "employee",
     "employee_name",
     "company",
     "currency",
     "incentive_amount",
     "column_break_5",
     "salary_component",
     "payroll_date",
     "department",
     "amended_from"
    ],
    "fields": [
     {
      "fieldname": "employee",
      "fieldtype": "Link",
      "in_list_view": 1,
      "label": "Employee",
      "options": "Employee",
      "reqd": 1
     },
     {
      "fieldname": "incentive_amount",
      "fieldtype": "Currency",
      "label": "Incentive Amount",
      "options": "currency",
      "reqd": 1
     },
     {
      "fieldname": "payroll_date",
      "fieldtype": "Date",
      "label": "Payroll Date",
      "reqd": 1
     },
     {
      "fieldname": "amended_from",
      "fieldtype": "Link",
      "label": "Amended From",
      "no_copy": 1,
      "options": "Employee Incentive",
      "print_hide": 1,
      "read_only": 1
     },
     {
      "fieldname": "column_break_5",
      "fieldtype": "Column Break"
     },
     {
      "fetch_from": "employee.employee_name",
      "fieldname": "employee_name",
      "fieldtype": "Data",
      "label": "Employee Name",
      "read_only": 1
     },
     {
      "fetch_from": "employee.department",
      "fieldname": "department",
      "fieldtype": "Link",
      "label": "Department",
      "options": "Department",
      "read_only": 1
     },
     {
      "fieldname": "salary_component",
      "fieldtype": "Link",
      "label": "Salary Component",
      "options": "Salary Component",
      "reqd": 1
     },
     {
      "depends_on": "eval:(doc.docstatus==1 || doc.employee)",
      "fieldname": "currency",
      "fieldtype": "Link",
      "label": "Currency",
      "options": "Currency",
      "print_hide": 1,
      "read_only": 1,
      "reqd": 1
     },
     {
      "fieldname": "company",
      "fieldtype": "Link",
      "label": "Company",
      "options": "Company",
      "reqd": 1
     }
    ],
    "is_submittable": 1,
    "links": [],
    "modified": "2022-01-19 12:52:19.850710",
    "modified_by": "Administrator",
    "module": "Payroll",
    "name": "Employee Incentive",
    "naming_rule": "Expression (old style)",
    "owner": "Administrator",
    "permissions": [
     {
      "amend": 1,
      "cancel": 1,
      "create": 1,
      "delete": 1,
      "email": 1,
      "export": 1,
      "print": 1,
      "read": 1,
      "report": 1,
      "role": "HR Manager",
      "share": 1,
      "submit": 1,
      "write": 1
     },
     {
      "email": 1,
      "export": 1,
      "print": 1,
      "read": 1,
      "report": 1,
      "role": "Employee",
      "share": 1
     },
     {
      "create": 1,
      "email": 1,
      "export": 1,
      "print": 1,
      "read": 1,
      "report": 1,
      "role": "HR User",
      "share": 1,
      "write": 1
     }
    ],
    "search_fields": "employee_name",
    "sort_field": "modified",
    "sort_order": "DESC",
    "states": [],
    "title_field": "employee_name",
    "track_changes": 1
   }
