{
    "actions": [],
    "allow_import": 1,
    "allow_rename": 1,
    "autoname": "HR-TAX-PRF-.YYYY.-.#####",
    "creation": "2018-04-13 17:24:11.456132",
    "doctype": "DocType",
    "editable_grid": 1,
    "engine": "InnoDB",
    "field_order": [
     "employee",
     "employee_name",
     "department",
     "currency",
     "column_break_2",
     "submission_date",
     "payroll_period",
     "company",
     "section_break_5",
     "tax_exemption_proofs",
     "section_break_10",
     "total_actual_amount",
     "column_break_12",
     "exemption_amount",
     "attachment_section",
     "attachments",
     "amended_from"
    ],
    "fields": [
     {
      "fieldname": "employee",
      "fieldtype": "Link",
      "in_list_view": 1,
      "in_standard_filter": 1,
      "label": "Employee",
      "options": "Employee",
      "reqd": 1
     },
     {
      "fetch_from": "employee.employee_name",
      "fieldname": "employee_name",
      "fieldtype": "Data",
      "label": "Employee Name",
      "read_only": 1
     },
     {
      "fetch_from": "employee.department",
      "fieldname": "department",
      "fieldtype": "Link",
      "label": "Department",
      "options": "Department",
      "read_only": 1
     },
     {
      "fieldname": "column_break_2",
      "fieldtype": "Column Break"
     },
     {
      "default": "Today",
      "fieldname": "submission_date",
      "fieldtype": "Date",
      "label": "Submission Date",
      "reqd": 1
     },
     {
      "fieldname": "payroll_period",
      "fieldtype": "Link",
      "in_list_view": 1,
      "in_standard_filter": 1,
      "label": "Payroll Period",
      "options": "Payroll Period",
      "reqd": 1
     },
     {
      "fetch_from": "employee.company",
      "fieldname": "company",
      "fieldtype": "Link",
      "label": "Company",
      "options": "Company",
      "read_only": 1,
      "reqd": 1
     },
     {
      "fieldname": "section_break_5",
      "fieldtype": "Section Break"
     },
     {
      "fieldname": "tax_exemption_proofs",
      "fieldtype": "Table",
      "label": "Tax Exemption Proofs",
      "options": "Employee Tax Exemption Proof Submission Detail"
     },
     {
      "fieldname": "section_break_10",
      "fieldtype": "Section Break"
     },
     {
      "fieldname": "total_actual_amount",
      "fieldtype": "Currency",
      "label": "Total Actual Amount",
      "options": "currency",
      "read_only": 1
     },
     {
      "fieldname": "column_break_12",
      "fieldtype": "Column Break"
     },
     {
      "fieldname": "exemption_amount",
      "fieldtype": "Currency",
      "label": "Total Exemption Amount",
      "options": "currency",
      "read_only": 1
     },
     {
      "fieldname": "attachment_section",
      "fieldtype": "Section Break"
     },
     {
      "fieldname": "attachments",
      "fieldtype": "Attach",
      "label": "Attachments"
     },
     {
      "fieldname": "amended_from",
      "fieldtype": "Link",
      "label": "Amended From",
      "no_copy": 1,
      "options": "Employee Tax Exemption Proof Submission",
      "print_hide": 1,
      "read_only": 1
     },
     {
      "depends_on": "eval: doc.employee",
      "fieldname": "currency",
      "fieldtype": "Link",
      "label": "Currency",
      "options": "Currency",
      "print_hide": 1,
      "reqd": 1
     }
    ],
    "is_submittable": 1,
    "links": [],
    "modified": "2022-01-19 12:58:24.244546",
    "modified_by": "Administrator",
    "module": "Payroll",
    "name": "Employee Tax Exemption Proof Submission",
    "naming_rule": "Expression (old style)",
    "owner": "Administrator",
    "permissions": [
     {
      "amend": 1,
      "cancel": 1,
      "create": 1,
      "delete": 1,
      "email": 1,
      "export": 1,
      "print": 1,
      "read": 1,
      "report": 1,
      "role": "System Manager",
      "share": 1,
      "submit": 1,
      "write": 1
     },
     {
      "amend": 1,
      "cancel": 1,
      "create": 1,
      "delete": 1,
      "email": 1,
      "export": 1,
      "print": 1,
      "read": 1,
      "report": 1,
      "role": "HR Manager",
      "share": 1,
      "submit": 1,
      "write": 1
     },
     {
      "amend": 1,
      "cancel": 1,
      "create": 1,
      "delete": 1,
      "email": 1,
      "export": 1,
      "print": 1,
      "read": 1,
      "report": 1,
      "role": "HR User",
      "share": 1,
      "submit": 1,
      "write": 1
     },
     {
      "amend": 1,
      "cancel": 1,
      "create": 1,
      "delete": 1,
      "email": 1,
      "export": 1,
      "print": 1,
      "read": 1,
      "report": 1,
      "role": "Employee",
      "share": 1,
      "submit": 1,
      "write": 1
     }
    ],
    "search_fields": "employee_name",
    "sort_field": "modified",
    "sort_order": "DESC",
    "states": [],
    "title_field": "employee_name",
    "track_changes": 1
   }
