{
 "actions": [],
 "creation": "2021-02-19 11:45:18.173417",
 "doctype": "DocType",
 "editable_grid": 1,
 "engine": "InnoDB",
 "field_order": [
  "leave_type",
  "total_allocated_leaves",
  "expired_leaves",
  "used_leaves",
  "pending_leaves",
  "available_leaves"
 ],
 "fields": [
  {
   "fieldname": "leave_type",
   "fieldtype": "Link",
   "in_list_view": 1,
   "label": "Leave Type",
   "no_copy": 1,
   "options": "Leave Type",
   "read_only": 1
  },
  {
   "fieldname": "total_allocated_leaves",
   "fieldtype": "Float",
   "in_list_view": 1,
   "label": "Total Allocated Leave(s)",
   "no_copy": 1,
   "read_only": 1
  },
  {
   "fieldname": "expired_leaves",
   "fieldtype": "Float",
   "in_list_view": 1,
   "label": "Expired Leave(s)",
   "no_copy": 1,
   "read_only": 1
  },
  {
   "fieldname": "used_leaves",
   "fieldtype": "Float",
   "in_list_view": 1,
   "label": "Used Leave(s)",
   "no_copy": 1,
   "read_only": 1
  },
  {
   "fieldname": "pending_leaves",
   "fieldtype": "Float",
   "in_list_view": 1,
   "label": "Leave(s) Pending Approval",
   "no_copy": 1,
   "read_only": 1
  },
  {
   "fieldname": "available_leaves",
   "fieldtype": "Float",
   "in_list_view": 1,
   "label": "Available Leave(s)",
   "no_copy": 1,
   "read_only": 1
  }
 ],
 "index_web_pages_for_search": 1,
 "istable": 1,
 "links": [],
 "modified": "2022-02-28 14:01:32.327204",
 "modified_by": "Administrator",
 "module": "Payroll",
 "name": "Salary Slip Leave",
 "owner": "Administrator",
 "permissions": [],
 "sort_field": "modified",
 "sort_order": "DESC",
 "states": [],
 "track_changes": 1
}
