{
    "actions": [],
    "creation": "2018-05-03 02:29:24.444341",
    "doctype": "DocType",
    "editable_grid": 1,
    "engine": "InnoDB",
    "field_order": [
     "company",
     "default_warehouse",
     "column_break_3",
     "default_price_list",
     "default_discount_account",
     "purchase_defaults",
     "buying_cost_center",
     "default_supplier",
     "column_break_8",
     "expense_account",
     "selling_defaults",
     "selling_cost_center",
     "column_break_12",
     "income_account"
    ],
    "fields": [
     {
      "fieldname": "company",
      "fieldtype": "Link",
      "ignore_user_permissions": 1,
      "in_list_view": 1,
      "label": "Company",
      "options": "Company",
      "reqd": 1
     },
     {
      "fieldname": "default_warehouse",
      "fieldtype": "Link",
      "in_list_view": 1,
      "label": "Default Warehouse",
      "options": "Warehouse"
     },
     {
      "fieldname": "column_break_3",
      "fieldtype": "Column Break"
     },
     {
      "fieldname": "default_price_list",
      "fieldtype": "Link",
      "in_list_view": 1,
      "label": "Default Price List",
      "options": "Price List"
     },
     {
      "fieldname": "purchase_defaults",
      "fieldtype": "Section Break",
      "label": "Purchase Defaults"
     },
     {
      "fieldname": "buying_cost_center",
      "fieldtype": "Link",
      "label": "Default Buying Cost Center",
      "options": "Cost Center"
     },
     {
      "fieldname": "default_supplier",
      "fieldtype": "Link",
      "label": "Default Supplier",
      "options": "Supplier"
     },
     {
      "fieldname": "column_break_8",
      "fieldtype": "Column Break"
     },
     {
      "fieldname": "expense_account",
      "fieldtype": "Link",
      "label": "Default Expense Account",
      "options": "Account"
     },
     {
      "fieldname": "selling_defaults",
      "fieldtype": "Section Break",
      "label": "Sales Defaults"
     },
     {
      "fieldname": "selling_cost_center",
      "fieldtype": "Link",
      "label": "Default Selling Cost Center",
      "options": "Cost Center"
     },
     {
      "fieldname": "column_break_12",
      "fieldtype": "Column Break"
     },
     {
      "fieldname": "income_account",
      "fieldtype": "Link",
      "label": "Default Income Account",
      "options": "Account"
     },
     {
      "fieldname": "default_discount_account",
      "fieldtype": "Link",
      "label": "Default Discount Account",
      "options": "Account"
     }
    ],
    "istable": 1,
    "links": [],
    "modified": "2021-07-13 01:26:03.860065",
    "modified_by": "Administrator",
    "module": "Stock",
    "name": "Item Default",
    "owner": "Administrator",
    "permissions": [],
    "quick_entry": 1,
    "sort_field": "modified",
    "sort_order": "DESC",
    "track_changes": 1
   }