{
 "button_gradients": 0,
 "button_rounded_corners": 1,
 "button_shadows": 0,
 "creation": "2022-01-26 19:31:00.561883",
 "custom": 0,
 "custom_overrides": "",
 "custom_scss": "",
 "docstatus": 0,
 "doctype": "Website Theme",
 "font_properties": "wght@300;400;500;600;700;800",
 "google_font": "Varela Round",
 "idx": 0,
 "ignored_apps": [],
 "modified": "2022-03-04 20:10:56.664597",
 "modified_by": "Administrator",
 "module": "Portal",
 "name": "Dokos",
 "owner": "Administrator",
 "theme": "Dokos",
 "theme_scss": "\n@import url('https://fonts.googleapis.com/css2?family=Varela+Round:wght@300;400;500;600;700;800&display=swap');\n$font-family-sans-serif: \"Varela Round\", -apple-system, BlinkMacSystemFont, \"Segoe UI\", \"Roboto\", \"Oxygen\", \"Ubuntu\", \"Cantarell\", \"Fira Sans\", \"Droid Sans\", \"Helvetica Neue\", sans-serif;\n\n$enable-shadows: false;\n$enable-gradients: false;\n$enable-rounded: true;\n\n// Bootstrap Variable Overrides\n\n\n// Import themes from installed apps\n@import \"frappe/public/scss/website.bundle\";\n@import \"erpnext/public/scss/website\";\n\n\n\n// Custom Theme\n\n\n:root {\n\t}",
 "theme_url": "/files/website_theme/dokos_style.css"
}
