{
 "category": "",
 "charts": [
  {
   "chart_name": "Outgoing Salary",
   "label": "Outgoing Salary"
  }
 ],
 "content": "[{\"type\": \"onboarding\", \"data\": {\"onboarding_name\": \"Human Resource\", \"col\": 12}}, {\"type\": \"chart\", \"data\": {\"chart_name\": \"Outgoing Salary\", \"col\": 12}}, {\"type\": \"spacer\", \"data\": {\"col\": 12}}, {\"type\": \"header\", \"data\": {\"text\": \"Vos raccourcis\", \"level\": 4, \"col\": 12}}, {\"type\": \"shortcut\", \"data\": {\"shortcut_name\": \"Employee\", \"col\": 4}}, {\"type\": \"shortcut\", \"data\": {\"shortcut_name\": \"Leave Application\", \"col\": 4}}, {\"type\": \"shortcut\", \"data\": {\"shortcut_name\": \"Attendance\", \"col\": 4}}, {\"type\": \"shortcut\", \"data\": {\"shortcut_name\": \"Job Applicant\", \"col\": 4}}, {\"type\": \"shortcut\", \"data\": {\"shortcut_name\": \"Monthly Attendance Sheet\", \"col\": 4}}, {\"type\": \"shortcut\", \"data\": {\"shortcut_name\": \"Dashboard\", \"col\": 4}}, {\"type\": \"spacer\", \"data\": {\"col\": 12}}, {\"type\": \"header\", \"data\": {\"text\": \"Rapports et donn\\u00e9es de base\", \"level\": 4, \"col\": 12}}, {\"type\": \"card\", \"data\": {\"card_name\": \"Employee\", \"col\": 4}}, {\"type\": \"card\", \"data\": {\"card_name\": \"Employee Lifecycle\", \"col\": 4}}, {\"type\": \"card\", \"data\": {\"card_name\": \"Shift Management\", \"col\": 4}}, {\"type\": \"card\", \"data\": {\"card_name\": \"Leaves\", \"col\": 4}}, {\"type\": \"card\", \"data\": {\"card_name\": \"Attendance\", \"col\": 4}}, {\"type\": \"card\", \"data\": {\"card_name\": \"Expense Claims\", \"col\": 4}}, {\"type\": \"card\", \"data\": {\"card_name\": \"Settings\", \"col\": 4}}, {\"type\": \"card\", \"data\": {\"card_name\": \"Fleet Management\", \"col\": 4}}, {\"type\": \"card\", \"data\": {\"card_name\": \"Recruitment\", \"col\": 4}}, {\"type\": \"card\", \"data\": {\"card_name\": \"Loans\", \"col\": 4}}, {\"type\": \"card\", \"data\": {\"card_name\": \"Training\", \"col\": 4}}, {\"type\": \"card\", \"data\": {\"card_name\": \"Performance\", \"col\": 4}}, {\"type\": \"card\", \"data\": {\"card_name\": \"Key Reports\", \"col\": 4}}, {\"type\": \"card\", \"data\": {\"card_name\": \"Other Reports\", \"col\": 4}}]",
 "creation": "2020-03-02 15:48:58.322521",
 "developer_mode_only": 0,
 "disable_user_customization": 0,
 "docstatus": 0,
 "doctype": "Workspace",
 "extends": "",
 "extends_another_page": 0,
 "hide_custom": 0,
 "icon": "hr",
 "idx": 0,
 "is_default": 0,
 "is_standard": 1,
 "label": "HR",
 "links": [
  {
   "hidden": 0,
   "is_query_report": 0,
   "label": "Employee",
   "link_count": 0,
   "onboard": 0,
   "type": "Card Break"
  },
  {
   "dependencies": "",
   "hidden": 0,
   "is_query_report": 0,
   "label": "Employee",
   "link_count": 0,
   "link_to": "Employee",
   "link_type": "DocType",
   "onboard": 1,
   "type": "Link"
  },
  {
   "dependencies": "",
   "hidden": 0,
   "is_query_report": 0,
   "label": "Employment Type",
   "link_count": 0,
   "link_to": "Employment Type",
   "link_type": "DocType",
   "onboard": 0,
   "type": "Link"
  },
  {
   "dependencies": "",
   "hidden": 0,
   "is_query_report": 0,
   "label": "Branch",
   "link_count": 0,
   "link_to": "Branch",
   "link_type": "DocType",
   "onboard": 0,
   "type": "Link"
  },
  {
   "dependencies": "",
   "hidden": 0,
   "is_query_report": 0,
   "label": "Department",
   "link_count": 0,
   "link_to": "Department",
   "link_type": "DocType",
   "onboard": 0,
   "type": "Link"
  },
  {
   "dependencies": "",
   "hidden": 0,
   "is_query_report": 0,
   "label": "Designation",
   "link_count": 0,
   "link_to": "Designation",
   "link_type": "DocType",
   "onboard": 0,
   "type": "Link"
  },
  {
   "dependencies": "",
   "hidden": 0,
   "is_query_report": 0,
   "label": "Employee Grade",
   "link_count": 0,
   "link_to": "Employee Grade",
   "link_type": "DocType",
   "onboard": 0,
   "type": "Link"
  },
  {
   "hidden": 0,
   "is_query_report": 0,
   "label": "Grievance Type",
   "link_count": 0,
   "link_to": "Grievance Type",
   "link_type": "DocType",
   "onboard": 0,
   "type": "Link"
  },
  {
   "hidden": 0,
   "is_query_report": 0,
   "label": "Employee Grievance",
   "link_count": 0,
   "link_to": "Employee Grievance",
   "link_type": "DocType",
   "onboard": 0,
   "type": "Link"
  },
  {
   "dependencies": "Employee",
   "hidden": 0,
   "is_query_report": 0,
   "label": "Employee Group",
   "link_count": 0,
   "link_to": "Employee Group",
   "link_type": "DocType",
   "onboard": 0,
   "type": "Link"
  },
  {
   "dependencies": "",
   "hidden": 0,
   "is_query_report": 0,
   "label": "Employee Health Insurance",
   "link_count": 0,
   "link_to": "Employee Health Insurance",
   "link_type": "DocType",
   "onboard": 0,
   "type": "Link"
  },
  {
   "hidden": 0,
   "is_query_report": 0,
   "label": "Employee Lifecycle",
   "link_count": 0,
   "onboard": 0,
   "type": "Card Break"
  },
  {
   "dependencies": "Job Applicant",
   "hidden": 0,
   "is_query_report": 0,
   "label": "Employee Onboarding",
   "link_count": 0,
   "link_to": "Employee Onboarding",
   "link_type": "DocType",
   "onboard": 0,
   "type": "Link"
  },
  {
   "dependencies": "Employee",
   "hidden": 0,
   "is_query_report": 0,
   "label": "Employee Skill Map",
   "link_count": 0,
   "link_to": "Employee Skill Map",
   "link_type": "DocType",
   "onboard": 0,
   "type": "Link"
  },
  {
   "dependencies": "Employee",
   "hidden": 0,
   "is_query_report": 0,
   "label": "Employee Promotion",
   "link_count": 0,
   "link_to": "Employee Promotion",
   "link_type": "DocType",
   "onboard": 0,
   "type": "Link"
  },
  {
   "dependencies": "Employee",
   "hidden": 0,
   "is_query_report": 0,
   "label": "Employee Transfer",
   "link_count": 0,
   "link_to": "Employee Transfer",
   "link_type": "DocType",
   "onboard": 0,
   "type": "Link"
  },
  {
   "dependencies": "Employee",
   "hidden": 0,
   "is_query_report": 0,
   "label": "Employee Separation",
   "link_count": 0,
   "link_to": "Employee Separation",
   "link_type": "DocType",
   "onboard": 0,
   "type": "Link"
  },
  {
   "dependencies": "Employee",
   "hidden": 0,
   "is_query_report": 0,
   "label": "Employee Onboarding Template",
   "link_count": 0,
   "link_to": "Employee Onboarding Template",
   "link_type": "DocType",
   "onboard": 0,
   "type": "Link"
  },
  {
   "dependencies": "Employee",
   "hidden": 0,
   "is_query_report": 0,
   "label": "Employee Separation Template",
   "link_count": 0,
   "link_to": "Employee Separation Template",
   "link_type": "DocType",
   "onboard": 0,
   "type": "Link"
  },
  {
   "dependencies": "Employee",
   "hidden": 0,
   "is_query_report": 0,
   "label": "Full and Final Statement",
   "link_count": 0,
   "link_to": "Full and Final Statement",
   "link_type": "DocType",
   "onboard": 0,
   "type": "Link"
  },
  {
   "hidden": 0,
   "is_query_report": 0,
   "label": "Shift Management",
   "link_count": 0,
   "onboard": 0,
   "type": "Card Break"
  },
  {
   "dependencies": "",
   "hidden": 0,
   "is_query_report": 0,
   "label": "Shift Type",
   "link_count": 0,
   "link_to": "Shift Type",
   "link_type": "DocType",
   "onboard": 0,
   "type": "Link"
  },
  {
   "dependencies": "",
   "hidden": 0,
   "is_query_report": 0,
   "label": "Shift Request",
   "link_count": 0,
   "link_to": "Shift Request",
   "link_type": "DocType",
   "onboard": 0,
   "type": "Link"
  },
  {
   "dependencies": "",
   "hidden": 0,
   "is_query_report": 0,
   "label": "Shift Assignment",
   "link_count": 0,
   "link_to": "Shift Assignment",
   "link_type": "DocType",
   "onboard": 0,
   "type": "Link"
  },
  {
   "hidden": 0,
   "is_query_report": 0,
   "label": "Leaves",
   "link_count": 0,
   "onboard": 0,
   "type": "Card Break"
  },
  {
   "dependencies": "",
   "hidden": 0,
   "is_query_report": 0,
   "label": "Holiday List",
   "link_count": 0,
   "link_to": "Holiday List",
   "link_type": "DocType",
   "onboard": 0,
   "type": "Link"
  },
  {
   "dependencies": "",
   "hidden": 0,
   "is_query_report": 0,
   "label": "Leave Type",
   "link_count": 0,
   "link_to": "Leave Type",
   "link_type": "DocType",
   "onboard": 0,
   "type": "Link"
  },
  {
   "dependencies": "",
   "hidden": 0,
   "is_query_report": 0,
   "label": "Leave Period",
   "link_count": 0,
   "link_to": "Leave Period",
   "link_type": "DocType",
   "onboard": 0,
   "type": "Link"
  },
  {
   "dependencies": "Leave Type",
   "hidden": 0,
   "is_query_report": 0,
   "label": "Leave Policy",
   "link_count": 0,
   "link_to": "Leave Policy",
   "link_type": "DocType",
   "onboard": 0,
   "type": "Link"
  },
  {
   "dependencies": "Leave Policy",
   "hidden": 0,
   "is_query_report": 0,
   "label": "Leave Policy Assignment",
   "link_count": 0,
   "link_to": "Leave Policy Assignment",
   "link_type": "DocType",
   "onboard": 0,
   "type": "Link"
  },
  {
   "dependencies": "Employee",
   "hidden": 0,
   "is_query_report": 0,
   "label": "Leave Application",
   "link_count": 0,
   "link_to": "Leave Application",
   "link_type": "DocType",
   "onboard": 0,
   "type": "Link"
  },
  {
   "dependencies": "Employee",
   "hidden": 0,
   "is_query_report": 0,
   "label": "Leave Allocation",
   "link_count": 0,
   "link_to": "Leave Allocation",
   "link_type": "DocType",
   "onboard": 0,
   "type": "Link"
  },
  {
   "dependencies": "Employee",
   "hidden": 0,
   "is_query_report": 0,
   "label": "Leave Encashment",
   "link_count": 0,
   "link_to": "Leave Encashment",
   "link_type": "DocType",
   "onboard": 0,
   "type": "Link"
  },
  {
   "dependencies": "",
   "hidden": 0,
   "is_query_report": 0,
   "label": "Leave Block List",
   "link_count": 0,
   "link_to": "Leave Block List",
   "link_type": "DocType",
   "onboard": 0,
   "type": "Link"
  },
  {
   "dependencies": "Employee",
   "hidden": 0,
   "is_query_report": 0,
   "label": "Compensatory Leave Request",
   "link_count": 0,
   "link_to": "Compensatory Leave Request",
   "link_type": "DocType",
   "onboard": 0,
   "type": "Link"
  },
  {
   "hidden": 0,
   "is_query_report": 0,
   "label": "Attendance",
   "link_count": 0,
   "onboard": 0,
   "type": "Card Break"
  },
  {
   "dependencies": "Employee",
   "hidden": 0,
   "is_query_report": 0,
   "label": "Employee Attendance Tool",
   "link_count": 0,
   "link_to": "Employee Attendance Tool",
   "link_type": "DocType",
   "onboard": 1,
   "type": "Link"
  },
  {
   "dependencies": "Employee",
   "hidden": 0,
   "is_query_report": 0,
   "label": "Attendance",
   "link_count": 0,
   "link_to": "Attendance",
   "link_type": "DocType",
   "onboard": 1,
   "type": "Link"
  },
  {
   "dependencies": "Employee",
   "hidden": 0,
   "is_query_report": 0,
   "label": "Attendance Request",
   "link_count": 0,
   "link_to": "Attendance Request",
   "link_type": "DocType",
   "onboard": 0,
   "type": "Link"
  },
  {
   "dependencies": "Employee",
   "hidden": 0,
   "is_query_report": 0,
   "label": "Upload Attendance",
   "link_count": 0,
   "link_to": "Upload Attendance",
   "link_type": "DocType",
   "onboard": 0,
   "type": "Link"
  },
  {
   "dependencies": "Employee",
   "hidden": 0,
   "is_query_report": 0,
   "label": "Employee Checkin",
   "link_count": 0,
   "link_to": "Employee Checkin",
   "link_type": "DocType",
   "onboard": 0,
   "type": "Link"
  },
  {
   "hidden": 0,
   "is_query_report": 0,
   "label": "Expense Claims",
   "link_count": 0,
   "onboard": 0,
   "type": "Card Break"
  },
  {
   "dependencies": "Employee",
   "hidden": 0,
   "is_query_report": 0,
   "label": "Expense Claim",
   "link_count": 0,
   "link_to": "Expense Claim",
   "link_type": "DocType",
   "onboard": 0,
   "type": "Link"
  },
  {
   "dependencies": "Employee",
   "hidden": 0,
   "is_query_report": 0,
   "label": "Employee Advance",
   "link_count": 0,
   "link_to": "Employee Advance",
   "link_type": "DocType",
   "onboard": 0,
   "type": "Link"
  },
  {
   "hidden": 0,
   "is_query_report": 0,
   "label": "Travel Request",
   "link_count": 0,
   "link_to": "Travel Request",
   "link_type": "DocType",
   "onboard": 0,
   "type": "Link"
  },
  {
   "hidden": 0,
   "is_query_report": 0,
   "label": "Settings",
   "link_count": 0,
   "onboard": 0,
   "type": "Card Break"
  },
  {
   "dependencies": "",
   "hidden": 0,
   "is_query_report": 0,
   "label": "HR Settings",
   "link_count": 0,
   "link_to": "HR Settings",
   "link_type": "DocType",
   "onboard": 0,
   "type": "Link"
  },
  {
   "dependencies": "",
   "hidden": 0,
   "is_query_report": 0,
   "label": "Daily Work Summary Group",
   "link_count": 0,
   "link_to": "Daily Work Summary Group",
   "link_type": "DocType",
   "onboard": 0,
   "type": "Link"
  },
  {
   "dependencies": "",
   "hidden": 0,
   "is_query_report": 0,
   "label": "Team Updates",
   "link_count": 0,
   "link_to": "team-updates",
   "link_type": "Page",
   "onboard": 0,
   "type": "Link"
  },
  {
   "hidden": 0,
   "is_query_report": 0,
   "label": "Fleet Management",
   "link_count": 0,
   "onboard": 0,
   "type": "Card Break"
  },
  {
   "hidden": 0,
   "is_query_report": 0,
   "label": "Driver",
   "link_count": 0,
   "link_to": "Driver",
   "link_type": "DocType",
   "onboard": 0,
   "type": "Link"
  },
  {
   "dependencies": "",
   "hidden": 0,
   "is_query_report": 0,
   "label": "Vehicle",
   "link_count": 0,
   "link_to": "Vehicle",
   "link_type": "DocType",
   "onboard": 0,
   "type": "Link"
  },
  {
   "dependencies": "",
   "hidden": 0,
   "is_query_report": 0,
   "label": "Vehicle Log",
   "link_count": 0,
   "link_to": "Vehicle Log",
   "link_type": "DocType",
   "onboard": 0,
   "type": "Link"
  },
  {
   "dependencies": "Vehicle",
   "hidden": 0,
   "is_query_report": 1,
   "label": "Vehicle Expenses",
   "link_count": 0,
   "link_to": "Vehicle Expenses",
   "link_type": "Report",
   "onboard": 0,
   "type": "Link"
  },
  {
   "hidden": 0,
   "is_query_report": 0,
   "label": "Recruitment",
   "link_count": 0,
   "onboard": 0,
   "type": "Card Break"
  },
  {
   "dependencies": "",
   "hidden": 0,
   "is_query_report": 0,
   "label": "Job Opening",
   "link_count": 0,
   "link_to": "Job Opening",
   "link_type": "DocType",
   "onboard": 1,
   "type": "Link"
  },
  {
   "dependencies": "",
   "hidden": 0,
   "is_query_report": 0,
   "label": "Job Applicant",
   "link_count": 0,
   "link_to": "Job Applicant",
   "link_type": "DocType",
   "onboard": 1,
   "type": "Link"
  },
  {
   "dependencies": "",
   "hidden": 0,
   "is_query_report": 0,
   "label": "Job Offer",
   "link_count": 0,
   "link_to": "Job Offer",
   "link_type": "DocType",
   "onboard": 1,
   "type": "Link"
  },
  {
   "dependencies": "",
   "hidden": 0,
   "is_query_report": 0,
   "label": "Staffing Plan",
   "link_count": 0,
   "link_to": "Staffing Plan",
   "link_type": "DocType",
   "onboard": 0,
   "type": "Link"
  },
  {
   "hidden": 0,
   "is_query_report": 0,
   "label": "Appointment Letter",
   "link_count": 0,
   "link_to": "Appointment Letter",
   "link_type": "DocType",
   "onboard": 0,
   "type": "Link"
  },
  {
   "hidden": 0,
   "is_query_report": 0,
   "label": "Appointment Letter Template",
   "link_count": 0,
   "link_to": "Appointment Letter Template",
   "link_type": "DocType",
   "onboard": 0,
   "type": "Link"
  },
  {
   "hidden": 0,
   "is_query_report": 0,
   "label": "Loans",
   "link_count": 0,
   "onboard": 0,
   "type": "Card Break"
  },
  {
   "dependencies": "Employee",
   "hidden": 0,
   "is_query_report": 0,
   "label": "Loan Application",
   "link_count": 0,
   "link_to": "Loan Application",
   "link_type": "DocType",
   "onboard": 0,
   "type": "Link"
  },
  {
   "dependencies": "",
   "hidden": 0,
   "is_query_report": 0,
   "label": "Loan",
   "link_count": 0,
   "link_to": "Loan",
   "link_type": "DocType",
   "onboard": 0,
   "type": "Link"
  },
  {
   "dependencies": "",
   "hidden": 0,
   "is_query_report": 0,
   "label": "Loan Type",
   "link_count": 0,
   "link_to": "Loan Type",
   "link_type": "DocType",
   "onboard": 0,
   "type": "Link"
  },
  {
   "hidden": 0,
   "is_query_report": 0,
   "label": "Training",
   "link_count": 0,
   "onboard": 0,
   "type": "Card Break"
  },
  {
   "dependencies": "",
   "hidden": 0,
   "is_query_report": 0,
   "label": "Training Program",
   "link_count": 0,
   "link_to": "Training Program",
   "link_type": "DocType",
   "onboard": 0,
   "type": "Link"
  },
  {
   "dependencies": "",
   "hidden": 0,
   "is_query_report": 0,
   "label": "Training Event",
   "link_count": 0,
   "link_to": "Training Event",
   "link_type": "DocType",
   "onboard": 0,
   "type": "Link"
  },
  {
   "dependencies": "",
   "hidden": 0,
   "is_query_report": 0,
   "label": "Training Result",
   "link_count": 0,
   "link_to": "Training Result",
   "link_type": "DocType",
   "onboard": 0,
   "type": "Link"
  },
  {
   "dependencies": "",
   "hidden": 0,
   "is_query_report": 0,
   "label": "Training Feedback",
   "link_count": 0,
   "link_to": "Training Feedback",
   "link_type": "DocType",
   "onboard": 0,
   "type": "Link"
  },
  {
   "hidden": 0,
   "is_query_report": 0,
   "label": "Performance",
   "link_count": 0,
   "onboard": 0,
   "type": "Card Break"
  },
  {
   "dependencies": "",
   "hidden": 0,
   "is_query_report": 0,
   "label": "Appraisal",
   "link_count": 0,
   "link_to": "Appraisal",
   "link_type": "DocType",
   "onboard": 0,
   "type": "Link"
  },
  {
   "dependencies": "",
   "hidden": 0,
   "is_query_report": 0,
   "label": "Appraisal Template",
   "link_count": 0,
   "link_to": "Appraisal Template",
   "link_type": "DocType",
   "onboard": 0,
   "type": "Link"
  },
  {
   "dependencies": "",
   "hidden": 0,
   "is_query_report": 0,
   "label": "Energy Point Rule",
   "link_count": 0,
   "link_to": "Energy Point Rule",
   "link_type": "DocType",
   "onboard": 0,
   "type": "Link"
  },
  {
   "dependencies": "",
   "hidden": 0,
   "is_query_report": 0,
   "label": "Energy Point Log",
   "link_count": 0,
   "link_to": "Energy Point Log",
   "link_type": "DocType",
   "onboard": 0,
   "type": "Link"
  },
  {
   "hidden": 0,
   "is_query_report": 0,
   "label": "Key Reports",
   "link_count": 0,
   "onboard": 0,
   "type": "Card Break"
  },
  {
   "dependencies": "Attendance",
   "hidden": 0,
   "is_query_report": 1,
   "label": "Monthly Attendance Sheet",
   "link_count": 0,
   "link_to": "Monthly Attendance Sheet",
   "link_type": "Report",
   "onboard": 0,
   "type": "Link"
  },
  {
   "dependencies": "Staffing Plan",
   "hidden": 0,
   "is_query_report": 1,
   "label": "Recruitment Analytics",
   "link_count": 0,
   "link_to": "Recruitment Analytics",
   "link_type": "Report",
   "onboard": 0,
   "type": "Link"
  },
  {
   "dependencies": "Employee",
   "hidden": 0,
   "is_query_report": 1,
   "label": "Employee Analytics",
   "link_count": 0,
   "link_to": "Employee Analytics",
   "link_type": "Report",
   "onboard": 0,
   "type": "Link"
  },
  {
   "dependencies": "Employee",
   "hidden": 0,
   "is_query_report": 1,
   "label": "Employee Leave Balance",
   "link_count": 0,
   "link_to": "Employee Leave Balance",
   "link_type": "Report",
   "onboard": 0,
   "type": "Link"
  },
  {
   "dependencies": "Employee",
   "hidden": 0,
   "is_query_report": 1,
   "label": "Employee Leave Balance Summary",
   "link_count": 0,
   "link_to": "Employee Leave Balance Summary",
   "link_type": "Report",
   "onboard": 0,
   "type": "Link"
  },
  {
   "dependencies": "Employee Advance",
   "hidden": 0,
   "is_query_report": 1,
   "label": "Employee Advance Summary",
   "link_count": 0,
   "link_to": "Employee Advance Summary",
   "link_type": "Report",
   "onboard": 0,
   "type": "Link"
  },
  {
   "hidden": 0,
   "is_query_report": 0,
   "label": "Other Reports",
   "link_count": 0,
   "onboard": 0,
   "type": "Card Break"
  },
  {
   "dependencies": "Employee",
   "hidden": 0,
   "is_query_report": 0,
   "label": "Employee Information",
   "link_count": 0,
   "link_to": "Employee Information",
   "link_type": "Report",
   "onboard": 0,
   "type": "Link"
  },
  {
   "dependencies": "Employee",
   "hidden": 0,
   "is_query_report": 1,
   "label": "Employee Birthday",
   "link_count": 0,
   "link_to": "Employee Birthday",
   "link_type": "Report",
   "onboard": 0,
   "type": "Link"
  },
  {
   "dependencies": "Employee",
   "hidden": 0,
   "is_query_report": 1,
   "label": "Employees Working on a Holiday",
   "link_count": 0,
   "link_to": "Employees working on a holiday",
   "link_type": "Report",
   "onboard": 0,
   "type": "Link"
  },
  {
   "hidden": 0,
   "is_query_report": 0,
   "label": "Employee Referral",
   "link_count": 0,
   "link_to": "Employee Referral",
   "link_type": "DocType",
   "onboard": 0,
   "type": "Link"
  },
  {
   "dependencies": "Daily Work Summary",
   "hidden": 0,
   "is_query_report": 1,
   "label": "Daily Work Summary Replies",
   "link_count": 0,
   "link_to": "Daily Work Summary Replies",
   "link_type": "Report",
   "onboard": 0,
   "type": "Link"
  }
 ],
 "modified": "2021-10-02 07:14:31.621540",
 "modified_by": "Administrator",
 "module": "HR",
 "name": "HR",
 "onboarding": "",
 "owner": "Administrator",
 "parent_page": "",
 "pin_to_bottom": 0,
 "pin_to_top": 0,
 "public": 1,
 "roles": [],
 "sequence_id": 7,
 "shortcuts": [
  {
   "color": "Green",
   "format": "{} Active",
   "label": "Employee",
   "link_to": "Employee",
   "stats_filter": "{\"status\":\"Active\"}",
   "type": "DocType"
  },
  {
   "color": "Yellow",
   "format": "{} Open",
   "label": "Leave Application",
   "link_to": "Leave Application",
   "stats_filter": "{\"status\":\"Open\"}",
   "type": "DocType"
  },
  {
   "label": "Attendance",
   "link_to": "Attendance",
   "stats_filter": "",
   "type": "DocType"
  },
  {
   "label": "Job Applicant",
   "link_to": "Job Applicant",
   "type": "DocType"
  },
  {
   "label": "Monthly Attendance Sheet",
   "link_to": "Monthly Attendance Sheet",
   "type": "Report"
  },
  {
   "format": "{} Open",
   "label": "Dashboard",
   "link_to": "Human Resource",
   "stats_filter": "{\n    \"status\": \"Open\"\n}",
   "type": "Dashboard"
  }
 ],
 "title": "HR"
}
