{
 "category": "",
 "charts": [
  {
   "chart_name": "Profit and Loss",
   "label": "Profit and Loss"
  },
  {
   "chart_name": "Bank Balance",
   "label": "Bank Balance"
  }
 ],
 "content": "[{\"type\": \"onboarding\", \"data\": {\"onboarding_name\": \"Accounts\", \"col\": 12}}, {\"type\": \"chart\", \"data\": {\"chart_name\": \"Profit and Loss\", \"col\": 12}}, {\"type\": \"chart\", \"data\": {\"chart_name\": \"Bank Balance\", \"col\": 12}}, {\"type\": \"spacer\", \"data\": {\"col\": 12}}, {\"type\": \"header\", \"data\": {\"text\": \"Vos raccourcis\", \"level\": 4, \"col\": 12}}, {\"type\": \"shortcut\", \"data\": {\"shortcut_name\": \"Chart of Accounts\", \"col\": 4}}, {\"type\": \"shortcut\", \"data\": {\"shortcut_name\": \"Sales Invoice\", \"col\": 4}}, {\"type\": \"shortcut\", \"data\": {\"shortcut_name\": \"Purchase Invoice\", \"col\": 4}}, {\"type\": \"shortcut\", \"data\": {\"shortcut_name\": \"Journal Entry\", \"col\": 4}}, {\"type\": \"shortcut\", \"data\": {\"shortcut_name\": \"Payment Entry\", \"col\": 4}}, {\"type\": \"shortcut\", \"data\": {\"shortcut_name\": \"Accounts Receivable\", \"col\": 4}}, {\"type\": \"shortcut\", \"data\": {\"shortcut_name\": \"General Ledger\", \"col\": 4}}, {\"type\": \"shortcut\", \"data\": {\"shortcut_name\": \"Trial Balance\", \"col\": 4}}, {\"type\": \"shortcut\", \"data\": {\"shortcut_name\": \"Dashboard\", \"col\": 4}}, {\"type\": \"spacer\", \"data\": {\"col\": 12}}, {\"type\": \"header\", \"data\": {\"text\": \"Rapports et donn\\u00e9es de base\", \"level\": 4, \"col\": 12}}, {\"type\": \"card\", \"data\": {\"card_name\": \"Accounting Masters\", \"col\": 4}}, {\"type\": \"card\", \"data\": {\"card_name\": \"General Ledger\", \"col\": 4}}, {\"type\": \"card\", \"data\": {\"card_name\": \"Accounts Receivable\", \"col\": 4}}, {\"type\": \"card\", \"data\": {\"card_name\": \"Accounts Payable\", \"col\": 4}}, {\"type\": \"card\", \"data\": {\"card_name\": \"Reports\", \"col\": 4}}, {\"type\": \"card\", \"data\": {\"card_name\": \"Financial Statements\", \"col\": 4}}, {\"type\": \"card\", \"data\": {\"card_name\": \"Multi Currency\", \"col\": 4}}, {\"type\": \"card\", \"data\": {\"card_name\": \"Settings\", \"col\": 4}}, {\"type\": \"card\", \"data\": {\"card_name\": \"Bank Statement\", \"col\": 4}}, {\"type\": \"card\", \"data\": {\"card_name\": \"Banking and Payments\", \"col\": 4}}, {\"type\": \"card\", \"data\": {\"card_name\": \"Subscription Management\", \"col\": 4}}, {\"type\": \"card\", \"data\": {\"card_name\": \"Goods and Services Tax (GST India)\", \"col\": 4}}, {\"type\": \"card\", \"data\": {\"card_name\": \"Share Management\", \"col\": 4}}, {\"type\": \"card\", \"data\": {\"card_name\": \"Cost Center and Budgeting\", \"col\": 4}}, {\"type\": \"card\", \"data\": {\"card_name\": \"Opening and Closing\", \"col\": 4}}, {\"type\": \"card\", \"data\": {\"card_name\": \"Taxes\", \"col\": 4}}, {\"type\": \"card\", \"data\": {\"card_name\": \"Profitability\", \"col\": 4}}]",
 "creation": "2020-03-02 15:41:59.515192",
 "developer_mode_only": 0,
 "disable_user_customization": 0,
 "docstatus": 0,
 "doctype": "Workspace",
 "extends": "",
 "extends_another_page": 0,
 "hide_custom": 0,
 "icon": "accounting",
 "idx": 0,
 "is_default": 0,
 "is_standard": 1,
 "label": "Accounting",
 "links": [
  {
   "hidden": 0,
   "is_query_report": 0,
   "label": "Accounting Masters",
   "link_count": 0,
   "onboard": 0,
   "type": "Card Break"
  },
  {
   "dependencies": "",
   "hidden": 0,
   "is_query_report": 0,
   "label": "Company",
   "link_count": 0,
   "link_to": "Company",
   "link_type": "DocType",
   "onboard": 1,
   "type": "Link"
  },
  {
   "dependencies": "",
   "hidden": 0,
   "is_query_report": 0,
   "label": "Chart of Accounts",
   "link_count": 0,
   "link_to": "Account",
   "link_type": "DocType",
   "onboard": 1,
   "type": "Link"
  },
  {
   "dependencies": "",
   "hidden": 0,
   "is_query_report": 0,
   "label": "Accounts Settings",
   "link_count": 0,
   "link_to": "Accounts Settings",
   "link_type": "DocType",
   "onboard": 0,
   "type": "Link"
  },
  {
   "dependencies": "",
   "hidden": 0,
   "is_query_report": 0,
   "label": "Fiscal Year",
   "link_count": 0,
   "link_to": "Fiscal Year",
   "link_type": "DocType",
   "onboard": 0,
   "type": "Link"
  },
  {
   "dependencies": "",
   "hidden": 0,
   "is_query_report": 0,
   "label": "Finance Book",
   "link_count": 0,
   "link_to": "Finance Book",
   "link_type": "DocType",
   "onboard": 0,
   "type": "Link"
  },
  {
   "dependencies": "",
   "hidden": 0,
   "is_query_report": 0,
   "label": "Accounting Dimension",
   "link_count": 0,
   "link_to": "Accounting Dimension",
   "link_type": "DocType",
   "onboard": 0,
   "type": "Link"
  },
  {
   "hidden": 0,
   "is_query_report": 0,
   "label": "Accounting Journal",
   "link_count": 0,
   "link_to": "Accounting Journal",
   "link_type": "DocType",
   "onboard": 0,
   "type": "Link"
  },
  {
   "dependencies": "",
   "hidden": 0,
   "is_query_report": 0,
   "label": "Accounting Period",
   "link_count": 0,
   "link_to": "Accounting Period",
   "link_type": "DocType",
   "onboard": 0,
   "type": "Link"
  },
  {
   "dependencies": "",
   "hidden": 0,
   "is_query_report": 0,
   "label": "Payment Term",
   "link_count": 0,
   "link_to": "Payment Term",
   "link_type": "DocType",
   "onboard": 0,
   "type": "Link"
  },
  {
   "hidden": 0,
   "is_query_report": 0,
   "label": "General Ledger",
   "link_count": 0,
   "onboard": 0,
   "type": "Card Break"
  },
  {
   "dependencies": "GL Entry",
   "hidden": 0,
   "is_query_report": 1,
   "label": "General Ledger",
   "link_count": 0,
   "link_to": "General Ledger",
   "link_type": "Report",
   "onboard": 0,
   "type": "Link"
  },
  {
   "dependencies": "",
   "hidden": 0,
   "is_query_report": 0,
   "label": "Journal Entry",
   "link_count": 0,
   "link_to": "Journal Entry",
   "link_type": "DocType",
   "onboard": 0,
   "type": "Link"
  },
  {
   "dependencies": "",
   "hidden": 0,
   "is_query_report": 0,
   "label": "Journal Entry Template",
   "link_count": 0,
   "link_to": "Journal Entry Template",
   "link_type": "DocType",
   "onboard": 0,
   "type": "Link"
  },
  {
   "dependencies": "Sales Invoice",
   "hidden": 0,
   "is_query_report": 1,
   "label": "Customer Ledger Summary",
   "link_count": 0,
   "link_to": "Customer Ledger Summary",
   "link_type": "Report",
   "onboard": 0,
   "type": "Link"
  },
  {
   "dependencies": "Sales Invoice",
   "hidden": 0,
   "is_query_report": 1,
   "label": "Supplier Ledger Summary",
   "link_count": 0,
   "link_to": "Supplier Ledger Summary",
   "link_type": "Report",
   "onboard": 0,
   "type": "Link"
  },
  {
   "hidden": 0,
   "is_query_report": 0,
   "label": "Accounts Receivable",
   "link_count": 0,
   "onboard": 0,
   "type": "Card Break"
  },
  {
   "dependencies": "",
   "hidden": 0,
   "is_query_report": 0,
   "label": "Sales Invoice",
   "link_count": 0,
   "link_to": "Sales Invoice",
   "link_type": "DocType",
   "onboard": 1,
   "type": "Link"
  },
  {
   "dependencies": "",
   "hidden": 0,
   "is_query_report": 0,
   "label": "Customer",
   "link_count": 0,
   "link_to": "Customer",
   "link_type": "DocType",
   "onboard": 1,
   "type": "Link"
  },
  {
   "dependencies": "",
   "hidden": 0,
   "is_query_report": 0,
   "label": "Payment Entry",
   "link_count": 0,
   "link_to": "Payment Entry",
   "link_type": "DocType",
   "onboard": 0,
   "type": "Link"
  },
  {
   "dependencies": "",
   "hidden": 0,
   "is_query_report": 0,
   "label": "Payment Request",
   "link_count": 0,
   "link_to": "Payment Request",
   "link_type": "DocType",
   "onboard": 0,
   "type": "Link"
  },
  {
   "dependencies": "Sales Invoice",
   "hidden": 0,
   "is_query_report": 1,
   "label": "Accounts Receivable",
   "link_count": 0,
   "link_to": "Accounts Receivable",
   "link_type": "Report",
   "onboard": 0,
   "type": "Link"
  },
  {
   "dependencies": "Sales Invoice",
   "hidden": 0,
   "is_query_report": 1,
   "label": "Accounts Receivable Summary",
   "link_count": 0,
   "link_to": "Accounts Receivable Summary",
   "link_type": "Report",
   "onboard": 0,
   "type": "Link"
  },
  {
   "dependencies": "Sales Invoice",
   "hidden": 0,
   "is_query_report": 1,
   "label": "Sales Register",
   "link_count": 0,
   "link_to": "Sales Register",
   "link_type": "Report",
   "onboard": 0,
   "type": "Link"
  },
  {
   "dependencies": "Sales Invoice",
   "hidden": 0,
   "is_query_report": 1,
   "label": "Item-wise Sales Register",
   "link_count": 0,
   "link_to": "Item-wise Sales Register",
   "link_type": "Report",
   "onboard": 0,
   "type": "Link"
  },
  {
   "dependencies": "Sales Invoice",
   "hidden": 0,
   "is_query_report": 1,
   "label": "Sales Order Analysis",
   "link_count": 0,
   "link_to": "Sales Order Analysis",
   "link_type": "Report",
   "onboard": 0,
   "type": "Link"
  },
  {
   "dependencies": "Sales Invoice",
   "hidden": 0,
   "is_query_report": 1,
   "label": "Delivered Items To Be Billed",
   "link_count": 0,
   "link_to": "Delivered Items To Be Billed",
   "link_type": "Report",
   "onboard": 0,
   "type": "Link"
  },
  {
   "hidden": 0,
   "is_query_report": 0,
   "label": "Accounts Payable",
   "link_count": 0,
   "onboard": 0,
   "type": "Card Break"
  },
  {
   "dependencies": "",
   "hidden": 0,
   "is_query_report": 0,
   "label": "Purchase Invoice",
   "link_count": 0,
   "link_to": "Purchase Invoice",
   "link_type": "DocType",
   "onboard": 1,
   "type": "Link"
  },
  {
   "dependencies": "",
   "hidden": 0,
   "is_query_report": 0,
   "label": "Supplier",
   "link_count": 0,
   "link_to": "Supplier",
   "link_type": "DocType",
   "onboard": 1,
   "type": "Link"
  },
  {
   "dependencies": "",
   "hidden": 0,
   "is_query_report": 0,
   "label": "Payment Entry",
   "link_count": 0,
   "link_to": "Payment Entry",
   "link_type": "DocType",
   "onboard": 0,
   "type": "Link"
  },
  {
   "dependencies": "Purchase Invoice",
   "hidden": 0,
   "is_query_report": 1,
   "label": "Accounts Payable",
   "link_count": 0,
   "link_to": "Accounts Payable",
   "link_type": "Report",
   "onboard": 0,
   "type": "Link"
  },
  {
   "dependencies": "Purchase Invoice",
   "hidden": 0,
   "is_query_report": 1,
   "label": "Accounts Payable Summary",
   "link_count": 0,
   "link_to": "Accounts Payable Summary",
   "link_type": "Report",
   "onboard": 0,
   "type": "Link"
  },
  {
   "dependencies": "Purchase Invoice",
   "hidden": 0,
   "is_query_report": 1,
   "label": "Purchase Register",
   "link_count": 0,
   "link_to": "Purchase Register",
   "link_type": "Report",
   "onboard": 0,
   "type": "Link"
  },
  {
   "dependencies": "Purchase Invoice",
   "hidden": 0,
   "is_query_report": 1,
   "label": "Item-wise Purchase Register",
   "link_count": 0,
   "link_to": "Item-wise Purchase Register",
   "link_type": "Report",
   "onboard": 0,
   "type": "Link"
  },
  {
   "dependencies": "Purchase Order",
   "hidden": 0,
   "is_query_report": 1,
   "label": "Purchase Order Analysis",
   "link_count": 0,
   "link_to": "Purchase Order Analysis",
   "link_type": "Report",
   "onboard": 0,
   "type": "Link"
  },
  {
   "dependencies": "Purchase Invoice",
   "hidden": 0,
   "is_query_report": 1,
   "label": "Received Items To Be Billed",
   "link_count": 0,
   "link_to": "Received Items To Be Billed",
   "link_type": "Report",
   "onboard": 0,
   "type": "Link"
  },
  {
   "hidden": 0,
   "is_query_report": 0,
   "label": "Reports",
   "link_count": 0,
   "onboard": 0,
   "type": "Card Break"
  },
  {
   "dependencies": "GL Entry",
   "hidden": 0,
   "is_query_report": 1,
   "label": "Trial Balance for Party",
   "link_count": 0,
   "link_to": "Trial Balance for Party",
   "link_type": "Report",
   "onboard": 0,
   "type": "Link"
  },
  {
   "dependencies": "Journal Entry",
   "hidden": 0,
   "is_query_report": 1,
   "label": "Payment Period Based On Invoice Date",
   "link_count": 0,
   "link_to": "Payment Period Based On Invoice Date",
   "link_type": "Report",
   "onboard": 0,
   "type": "Link"
  },
  {
   "dependencies": "Sales Invoice",
   "hidden": 0,
   "is_query_report": 1,
   "label": "Sales Partners Commission",
   "link_count": 0,
   "link_to": "Sales Partners Commission",
   "link_type": "Report",
   "onboard": 0,
   "type": "Link"
  },
  {
   "dependencies": "Customer",
   "hidden": 0,
   "is_query_report": 1,
   "label": "Customer Credit Balance",
   "link_count": 0,
   "link_to": "Customer Credit Balance",
   "link_type": "Report",
   "onboard": 0,
   "type": "Link"
  },
  {
   "dependencies": "Sales Invoice",
   "hidden": 0,
   "is_query_report": 1,
   "label": "Sales Payment Summary",
   "link_count": 0,
   "link_to": "Sales Payment Summary",
   "link_type": "Report",
   "onboard": 0,
   "type": "Link"
  },
  {
   "dependencies": "Address",
   "hidden": 0,
   "is_query_report": 1,
   "label": "Address And Contacts",
   "link_count": 0,
   "link_to": "Address And Contacts",
   "link_type": "Report",
   "onboard": 0,
   "type": "Link"
  },
  {
   "dependencies": "GL Entry",
   "hidden": 0,
   "is_query_report": 1,
   "label": "DATEV Export",
   "link_count": 0,
   "link_to": "DATEV",
   "link_type": "Report",
   "onboard": 0,
   "only_for": "Germany",
   "type": "Link"
  },
  {
   "hidden": 0,
   "is_query_report": 0,
   "label": "Financial Statements",
   "link_count": 0,
   "onboard": 0,
   "type": "Card Break"
  },
  {
   "dependencies": "GL Entry",
   "hidden": 0,
   "is_query_report": 1,
   "label": "Trial Balance",
   "link_count": 0,
   "link_to": "Trial Balance",
   "link_type": "Report",
   "onboard": 0,
   "type": "Link"
  },
  {
   "dependencies": "GL Entry",
   "hidden": 0,
   "is_query_report": 1,
   "label": "Profit and Loss Statement",
   "link_count": 0,
   "link_to": "Profit and Loss Statement",
   "link_type": "Report",
   "onboard": 0,
   "type": "Link"
  },
  {
   "dependencies": "GL Entry",
   "hidden": 0,
   "is_query_report": 1,
   "label": "Balance Sheet",
   "link_count": 0,
   "link_to": "Balance Sheet",
   "link_type": "Report",
   "onboard": 0,
   "type": "Link"
  },
  {
   "dependencies": "GL Entry",
   "hidden": 0,
   "is_query_report": 1,
   "label": "Cash Flow",
   "link_count": 0,
   "link_to": "Cash Flow",
   "link_type": "Report",
   "onboard": 0,
   "type": "Link"
  },
  {
   "dependencies": "GL Entry",
   "hidden": 0,
   "is_query_report": 1,
   "label": "Consolidated Financial Statement",
   "link_count": 0,
   "link_to": "Consolidated Financial Statement",
   "link_type": "Report",
   "onboard": 0,
   "type": "Link"
  },
  {
   "hidden": 0,
   "is_query_report": 0,
   "label": "Multi Currency",
   "link_count": 0,
   "onboard": 0,
   "type": "Card Break"
  },
  {
   "dependencies": "",
   "hidden": 0,
   "is_query_report": 0,
   "label": "Currency",
   "link_count": 0,
   "link_to": "Currency",
   "link_type": "DocType",
   "onboard": 0,
   "type": "Link"
  },
  {
   "dependencies": "",
   "hidden": 0,
   "is_query_report": 0,
   "label": "Currency Exchange",
   "link_count": 0,
   "link_to": "Currency Exchange",
   "link_type": "DocType",
   "onboard": 0,
   "type": "Link"
  },
  {
   "dependencies": "",
   "hidden": 0,
   "is_query_report": 0,
   "label": "Exchange Rate Revaluation",
   "link_count": 0,
   "link_to": "Exchange Rate Revaluation",
   "link_type": "DocType",
   "onboard": 0,
   "type": "Link"
  },
  {
   "hidden": 0,
   "is_query_report": 0,
   "label": "Settings",
   "link_count": 0,
   "onboard": 0,
   "type": "Card Break"
  },
  {
   "dependencies": "",
   "hidden": 0,
   "is_query_report": 0,
   "label": "Payment Gateway Account",
   "link_count": 0,
   "link_to": "Payment Gateway Account",
   "link_type": "DocType",
   "onboard": 0,
   "type": "Link"
  },
  {
   "dependencies": "",
   "hidden": 0,
   "is_query_report": 0,
   "label": "Terms and Conditions Template",
   "link_count": 0,
   "link_to": "Terms and Conditions",
   "link_type": "DocType",
   "onboard": 0,
   "type": "Link"
  },
  {
   "dependencies": "",
   "hidden": 0,
   "is_query_report": 0,
   "label": "Mode of Payment",
   "link_count": 0,
   "link_to": "Mode of Payment",
   "link_type": "DocType",
   "onboard": 0,
   "type": "Link"
  },
  {
   "hidden": 0,
   "is_query_report": 0,
   "label": "Bank Statement",
   "link_count": 0,
   "onboard": 0,
   "type": "Card Break"
  },
  {
   "dependencies": "",
   "hidden": 0,
   "is_query_report": 0,
   "label": "Bank",
   "link_count": 0,
   "link_to": "Bank",
   "link_type": "DocType",
   "onboard": 0,
   "type": "Link"
  },
  {
   "dependencies": "",
   "hidden": 0,
   "is_query_report": 0,
   "label": "Bank Account",
   "link_count": 0,
   "link_to": "Bank Account",
   "link_type": "DocType",
   "onboard": 0,
   "type": "Link"
  },
  {
   "hidden": 0,
   "is_query_report": 0,
   "label": "Bank Transaction",
   "link_count": 0,
   "link_to": "Bank Transaction",
   "link_type": "DocType",
   "onboard": 0,
   "type": "Link"
  },
  {
   "dependencies": "",
   "hidden": 0,
   "is_query_report": 0,
   "label": "Bank Clearance",
   "link_count": 0,
   "link_to": "Bank Clearance",
   "link_type": "DocType",
   "onboard": 0,
   "type": "Link"
  },
  {
   "dependencies": "",
   "hidden": 0,
   "is_query_report": 0,
   "label": "Bank Reconciliation",
   "link_count": 0,
   "link_to": "bank-reconciliation",
   "link_type": "Page",
   "onboard": 0,
   "type": "Link"
  },
  {
   "hidden": 0,
   "is_query_report": 0,
   "label": "Payment Reconciliation",
   "link_count": 0,
   "link_to": "Payment Reconciliation",
   "link_type": "DocType",
   "onboard": 0,
   "type": "Link"
  },
  {
   "dependencies": "GL Entry",
   "hidden": 0,
   "is_query_report": 1,
   "label": "Bank Reconciliation Statement",
   "link_count": 0,
   "link_to": "Bank Reconciliation Statement",
   "link_type": "Report",
   "onboard": 0,
   "type": "Link"
  },
  {
   "hidden": 0,
   "is_query_report": 0,
   "label": "Banking and Payments",
   "link_count": 0,
   "link_type": "DocType",
   "onboard": 0,
   "type": "Card Break"
  },
  {
   "hidden": 0,
   "is_query_report": 0,
   "label": "Sepa Mandate",
   "link_count": 0,
   "link_to": "Sepa Mandate",
   "link_type": "DocType",
   "onboard": 0,
   "type": "Link"
  },
  {
   "hidden": 0,
   "is_query_report": 0,
   "label": "Sepa Direct Debit",
   "link_count": 0,
   "link_to": "Sepa Direct Debit",
   "link_type": "DocType",
   "onboard": 0,
   "type": "Link"
  },
  {
   "hidden": 0,
   "is_query_report": 0,
   "label": "Sepa Direct Debit Settings",
   "link_count": 0,
   "link_to": "Sepa Direct Debit Settings",
   "link_type": "DocType",
   "onboard": 0,
   "type": "Link"
  },
  {
   "hidden": 0,
   "is_query_report": 0,
   "label": "Subscription Management",
   "link_count": 0,
   "onboard": 0,
   "type": "Card Break"
  },
  {
   "dependencies": "",
   "hidden": 0,
   "is_query_report": 0,
   "label": "Subscription Plan",
   "link_count": 0,
   "link_to": "Subscription Plan",
   "link_type": "DocType",
   "onboard": 0,
   "type": "Link"
  },
  {
   "dependencies": "",
   "hidden": 0,
   "is_query_report": 0,
   "label": "Subscription",
   "link_count": 0,
   "link_to": "Subscription",
   "link_type": "DocType",
   "onboard": 0,
   "type": "Link"
  },
  {
   "dependencies": "",
   "hidden": 0,
   "is_query_report": 0,
   "label": "Subscription Template",
   "link_count": 0,
   "link_to": "Subscription Template",
   "link_type": "DocType",
   "onboard": 0,
   "type": "Link"
  },
  {
   "hidden": 0,
   "is_query_report": 0,
   "label": "Goods and Services Tax (GST India)",
   "link_count": 0,
   "onboard": 0,
   "only_for": "India",
   "type": "Card Break"
  },
  {
   "dependencies": "",
   "hidden": 0,
   "is_query_report": 0,
   "label": "GST Settings",
   "link_count": 0,
   "link_to": "GST Settings",
   "link_type": "DocType",
   "onboard": 0,
   "only_for": "India",
   "type": "Link"
  },
  {
   "dependencies": "",
   "hidden": 0,
   "is_query_report": 0,
   "label": "GST HSN Code",
   "link_count": 0,
   "link_to": "GST HSN Code",
   "link_type": "DocType",
   "onboard": 0,
   "only_for": "India",
   "type": "Link"
  },
  {
   "dependencies": "",
   "hidden": 0,
   "is_query_report": 1,
   "label": "GSTR-1",
   "link_count": 0,
   "link_to": "GSTR-1",
   "link_type": "Report",
   "onboard": 0,
   "only_for": "India",
   "type": "Link"
  },
  {
   "dependencies": "",
   "hidden": 0,
   "is_query_report": 1,
   "label": "GSTR-2",
   "link_count": 0,
   "link_to": "GSTR-2",
   "link_type": "Report",
   "onboard": 0,
   "only_for": "India",
   "type": "Link"
  },
  {
   "dependencies": "",
   "hidden": 0,
   "is_query_report": 0,
   "label": "GSTR 3B Report",
   "link_count": 0,
   "link_to": "GSTR 3B Report",
   "link_type": "DocType",
   "onboard": 0,
   "only_for": "India",
   "type": "Link"
  },
  {
   "dependencies": "",
   "hidden": 0,
   "is_query_report": 1,
   "label": "GST Sales Register",
   "link_count": 0,
   "link_to": "GST Sales Register",
   "link_type": "Report",
   "onboard": 0,
   "only_for": "India",
   "type": "Link"
  },
  {
   "dependencies": "",
   "hidden": 0,
   "is_query_report": 1,
   "label": "GST Purchase Register",
   "link_count": 0,
   "link_to": "GST Purchase Register",
   "link_type": "Report",
   "onboard": 0,
   "only_for": "India",
   "type": "Link"
  },
  {
   "dependencies": "",
   "hidden": 0,
   "is_query_report": 1,
   "label": "GST Itemised Sales Register",
   "link_count": 0,
   "link_to": "GST Itemised Sales Register",
   "link_type": "Report",
   "onboard": 0,
   "only_for": "India",
   "type": "Link"
  },
  {
   "dependencies": "",
   "hidden": 0,
   "is_query_report": 1,
   "label": "GST Itemised Purchase Register",
   "link_count": 0,
   "link_to": "GST Itemised Purchase Register",
   "link_type": "Report",
   "onboard": 0,
   "only_for": "India",
   "type": "Link"
  },
  {
   "dependencies": "",
   "hidden": 0,
   "is_query_report": 0,
   "label": "C-Form",
   "link_count": 0,
   "link_to": "C-Form",
   "link_type": "DocType",
   "onboard": 0,
   "only_for": "India",
   "type": "Link"
  },
  {
   "dependencies": "",
   "hidden": 0,
   "is_query_report": 0,
   "label": "Lower Deduction Certificate",
   "link_count": 0,
   "link_to": "Lower Deduction Certificate",
   "link_type": "DocType",
   "onboard": 0,
   "only_for": "India",
   "type": "Link"
  },
  {
   "hidden": 0,
   "is_query_report": 0,
   "label": "Share Management",
   "link_count": 0,
   "onboard": 0,
   "type": "Card Break"
  },
  {
   "dependencies": "",
   "hidden": 0,
   "is_query_report": 0,
   "label": "Shareholder",
   "link_count": 0,
   "link_to": "Shareholder",
   "link_type": "DocType",
   "onboard": 0,
   "type": "Link"
  },
  {
   "dependencies": "",
   "hidden": 0,
   "is_query_report": 0,
   "label": "Share Transfer",
   "link_count": 0,
   "link_to": "Share Transfer",
   "link_type": "DocType",
   "onboard": 0,
   "type": "Link"
  },
  {
   "dependencies": "Share Transfer",
   "hidden": 0,
   "is_query_report": 1,
   "label": "Share Ledger",
   "link_count": 0,
   "link_to": "Share Ledger",
   "link_type": "Report",
   "onboard": 0,
   "type": "Link"
  },
  {
   "dependencies": "Share Transfer",
   "hidden": 0,
   "is_query_report": 1,
   "label": "Share Balance",
   "link_count": 0,
   "link_to": "Share Balance",
   "link_type": "Report",
   "onboard": 0,
   "type": "Link"
  },
  {
   "hidden": 0,
   "is_query_report": 0,
   "label": "Cost Center and Budgeting",
   "link_count": 0,
   "onboard": 0,
   "type": "Card Break"
  },
  {
   "dependencies": "",
   "hidden": 0,
   "is_query_report": 0,
   "label": "Chart of Cost Centers",
   "link_count": 0,
   "link_to": "Cost Center",
   "link_type": "DocType",
   "onboard": 0,
   "type": "Link"
  },
  {
   "dependencies": "",
   "hidden": 0,
   "is_query_report": 0,
   "label": "Budget",
   "link_count": 0,
   "link_to": "Budget",
   "link_type": "DocType",
   "onboard": 0,
   "type": "Link"
  },
  {
   "dependencies": "",
   "hidden": 0,
   "is_query_report": 0,
   "label": "Accounting Dimension",
   "link_count": 0,
   "link_to": "Accounting Dimension",
   "link_type": "DocType",
   "onboard": 0,
   "type": "Link"
  },
  {
    "dependencies": "Cost Center",
    "hidden": 0,
    "is_query_report": 0,
    "label": "Cost Center Allocation",
    "link_count": 0,
    "link_to": "Cost Center Allocation",
    "link_type": "DocType",
    "onboard": 0,
    "type": "Link"
   },
  {
   "dependencies": "Cost Center",
   "hidden": 0,
   "is_query_report": 1,
   "label": "Budget Variance Report",
   "link_count": 0,
   "link_to": "Budget Variance Report",
   "link_type": "Report",
   "onboard": 0,
   "type": "Link"
  },
  {
   "dependencies": "",
   "hidden": 0,
   "is_query_report": 0,
   "label": "Monthly Distribution",
   "link_count": 0,
   "link_to": "Monthly Distribution",
   "link_type": "DocType",
   "onboard": 0,
   "type": "Link"
  },
  {
   "hidden": 0,
   "is_query_report": 0,
   "label": "Opening and Closing",
   "link_count": 0,
   "onboard": 0,
   "type": "Card Break"
  },
  {
   "dependencies": "",
   "hidden": 0,
   "is_query_report": 0,
   "label": "Opening Invoice Creation Tool",
   "link_count": 0,
   "link_to": "Opening Invoice Creation Tool",
   "link_type": "DocType",
   "onboard": 0,
   "type": "Link"
  },
  {
   "hidden": 0,
   "is_query_report": 0,
   "label": "Adjustment Entry",
   "link_to": "Adjustment Entry",
   "link_type": "DocType",
   "onboard": 0,
   "type": "Link"
  },
  {
   "dependencies": "",
   "hidden": 0,
   "is_query_report": 0,
   "label": "Chart of Accounts Importer",
   "link_count": 0,
   "link_to": "Chart of Accounts Importer",
   "link_type": "DocType",
   "onboard": 0,
   "type": "Link"
  },
  {
   "dependencies": "",
   "hidden": 0,
   "is_query_report": 0,
   "label": "Period Closing Voucher",
   "link_count": 0,
   "link_to": "Period Closing Voucher",
   "link_type": "DocType",
   "onboard": 0,
   "type": "Link"
  },
  {
   "hidden": 0,
   "is_query_report": 1,
   "label": "Fichier des Ecritures Comptables [FEC]",
   "link_count": 0,
   "link_to": "Fichier des Ecritures Comptables [FEC]",
   "link_type": "Report",
   "onboard": 0,
   "only_for": "France",
   "type": "Link"
  },
  {
   "hidden": 0,
   "is_query_report": 0,
   "label": "Taxes",
   "link_count": 0,
   "onboard": 0,
   "type": "Card Break"
  },
  {
   "dependencies": "",
   "hidden": 0,
   "is_query_report": 0,
   "label": "Sales Taxes and Charges Template",
   "link_count": 0,
   "link_to": "Sales Taxes and Charges Template",
   "link_type": "DocType",
   "onboard": 0,
   "type": "Link"
  },
  {
   "dependencies": "",
   "hidden": 0,
   "is_query_report": 0,
   "label": "Purchase Taxes and Charges Template",
   "link_count": 0,
   "link_to": "Purchase Taxes and Charges Template",
   "link_type": "DocType",
   "onboard": 0,
   "type": "Link"
  },
  {
   "dependencies": "",
   "hidden": 0,
   "is_query_report": 0,
   "label": "Item Tax Template",
   "link_count": 0,
   "link_to": "Item Tax Template",
   "link_type": "DocType",
   "onboard": 0,
   "type": "Link"
  },
  {
   "dependencies": "",
   "hidden": 0,
   "is_query_report": 0,
   "label": "Tax Category",
   "link_count": 0,
   "link_to": "Tax Category",
   "link_type": "DocType",
   "onboard": 0,
   "type": "Link"
  },
  {
   "dependencies": "",
   "hidden": 0,
   "is_query_report": 0,
   "label": "Tax Rule",
   "link_count": 0,
   "link_to": "Tax Rule",
   "link_type": "DocType",
   "onboard": 0,
   "type": "Link"
  },
  {
   "dependencies": "",
   "hidden": 0,
   "is_query_report": 0,
   "label": "Tax Withholding Category",
   "link_count": 0,
   "link_to": "Tax Withholding Category",
   "link_type": "DocType",
   "onboard": 0,
   "type": "Link"
  },
  {
   "hidden": 0,
   "is_query_report": 0,
   "label": "Profitability",
   "link_count": 0,
   "onboard": 0,
   "type": "Card Break"
  },
  {
   "dependencies": "Sales Invoice",
   "hidden": 0,
   "is_query_report": 1,
   "label": "Gross Profit",
   "link_count": 0,
   "link_to": "Gross Profit",
   "link_type": "Report",
   "onboard": 0,
   "type": "Link"
  },
  {
   "dependencies": "GL Entry",
   "hidden": 0,
   "is_query_report": 1,
   "label": "Profitability Analysis",
   "link_count": 0,
   "link_to": "Profitability Analysis",
   "link_type": "Report",
   "onboard": 0,
   "type": "Link"
  },
  {
   "dependencies": "Sales Invoice",
   "hidden": 0,
   "is_query_report": 1,
   "label": "Sales Invoice Trends",
   "link_count": 0,
   "link_to": "Sales Invoice Trends",
   "link_type": "Report",
   "onboard": 0,
   "type": "Link"
  },
  {
   "dependencies": "Purchase Invoice",
   "hidden": 0,
   "is_query_report": 1,
   "label": "Purchase Invoice Trends",
   "link_count": 0,
   "link_to": "Purchase Invoice Trends",
   "link_type": "Report",
   "onboard": 0,
   "type": "Link"
  }
 ],
 "modified": "2022-03-03 09:10:34.057446",
 "modified_by": "Administrator",
 "module": "Accounts",
 "name": "Accounting",
 "onboarding": "",
 "owner": "Administrator",
 "parent_page": "",
 "pin_to_bottom": 0,
 "pin_to_top": 0,
 "public": 1,
 "roles": [],
 "sequence_id": 3,
 "shortcuts": [
  {
   "label": "Chart of Accounts",
   "link_to": "Account",
   "type": "DocType"
  },
  {
   "label": "Sales Invoice",
   "link_to": "Sales Invoice",
   "type": "DocType"
  },
  {
   "label": "Purchase Invoice",
   "link_to": "Purchase Invoice",
   "type": "DocType"
  },
  {
   "label": "Journal Entry",
   "link_to": "Journal Entry",
   "type": "DocType"
  },
  {
   "label": "Payment Entry",
   "link_to": "Payment Entry",
   "type": "DocType"
  },
  {
   "label": "Accounts Receivable",
   "link_to": "Accounts Receivable",
   "type": "Report"
  },
  {
   "label": "General Ledger",
   "link_to": "General Ledger",
   "type": "Report"
  },
  {
   "label": "Trial Balance",
   "link_to": "Trial Balance",
   "type": "Report"
  },
  {
   "label": "Dashboard",
   "link_to": "Accounts",
   "type": "Dashboard"
  }
 ],
 "title": "Accounting"
}
