{
 "category": "",
 "charts": [
  {
   "chart_name": "Outgoing Salary",
   "label": "Outgoing Salary"
  }
 ],
 "content": "[{\"type\": \"onboarding\", \"data\": {\"onboarding_name\": \"Payroll\", \"col\": 12}}, {\"type\": \"chart\", \"data\": {\"chart_name\": \"Outgoing Salary\", \"col\": 12}}, {\"type\": \"spacer\", \"data\": {\"col\": 12}}, {\"type\": \"header\", \"data\": {\"text\": \"Vos raccourcis\", \"level\": 4, \"col\": 12}}, {\"type\": \"shortcut\", \"data\": {\"shortcut_name\": \"Salary Structure\", \"col\": 4}}, {\"type\": \"shortcut\", \"data\": {\"shortcut_name\": \"Payroll Entry\", \"col\": 4}}, {\"type\": \"shortcut\", \"data\": {\"shortcut_name\": \"Salary Slip\", \"col\": 4}}, {\"type\": \"shortcut\", \"data\": {\"shortcut_name\": \"Income Tax Slab\", \"col\": 4}}, {\"type\": \"shortcut\", \"data\": {\"shortcut_name\": \"Salary Register\", \"col\": 4}}, {\"type\": \"shortcut\", \"data\": {\"shortcut_name\": \"Dashboard\", \"col\": 4}}, {\"type\": \"spacer\", \"data\": {\"col\": 12}}, {\"type\": \"header\", \"data\": {\"text\": \"Rapports et donn\\u00e9es de base\", \"level\": 4, \"col\": 12}}, {\"type\": \"card\", \"data\": {\"card_name\": \"Payroll\", \"col\": 4}}, {\"type\": \"card\", \"data\": {\"card_name\": \"Taxation\", \"col\": 4}}, {\"type\": \"card\", \"data\": {\"card_name\": \"Compensations\", \"col\": 4}}, {\"type\": \"card\", \"data\": {\"card_name\": \"Reports\", \"col\": 4}}]",
 "creation": "2020-05-27 19:54:23.405607",
 "developer_mode_only": 0,
 "disable_user_customization": 0,
 "docstatus": 0,
 "doctype": "Workspace",
 "extends": "",
 "extends_another_page": 0,
 "hide_custom": 0,
 "icon": "money-coins-1",
 "idx": 0,
 "is_default": 0,
 "is_standard": 1,
 "label": "Payroll",
 "links": [
  {
   "hidden": 0,
   "is_query_report": 0,
   "label": "Payroll",
   "link_count": 0,
   "onboard": 0,
   "type": "Card Break"
  },
  {
   "dependencies": "",
   "hidden": 0,
   "is_query_report": 0,
   "label": "Salary Component",
   "link_count": 0,
   "link_to": "Salary Component",
   "link_type": "DocType",
   "onboard": 1,
   "type": "Link"
  },
  {
   "dependencies": "",
   "hidden": 0,
   "is_query_report": 0,
   "label": "Salary Structure",
   "link_count": 0,
   "link_to": "Salary Structure",
   "link_type": "DocType",
   "onboard": 1,
   "type": "Link"
  },
  {
   "dependencies": "",
   "hidden": 0,
   "is_query_report": 0,
   "label": "Salary Structure Assignment",
   "link_count": 0,
   "link_to": "Salary Structure Assignment",
   "link_type": "DocType",
   "onboard": 1,
   "type": "Link"
  },
  {
   "dependencies": "",
   "hidden": 0,
   "is_query_report": 0,
   "label": "Payroll Entry",
   "link_count": 0,
   "link_to": "Payroll Entry",
   "link_type": "DocType",
   "onboard": 1,
   "type": "Link"
  },
  {
   "dependencies": "",
   "hidden": 0,
   "is_query_report": 0,
   "label": "Salary Slip",
   "link_count": 0,
   "link_to": "Salary Slip",
   "link_type": "DocType",
   "onboard": 1,
   "type": "Link"
  },
  {
   "hidden": 0,
   "is_query_report": 0,
   "label": "Taxation",
   "link_count": 0,
   "onboard": 0,
   "type": "Card Break"
  },
  {
   "dependencies": "",
   "hidden": 0,
   "is_query_report": 0,
   "label": "Payroll Period",
   "link_count": 0,
   "link_to": "Payroll Period",
   "link_type": "DocType",
   "onboard": 1,
   "type": "Link"
  },
  {
   "dependencies": "",
   "hidden": 0,
   "is_query_report": 0,
   "label": "Income Tax Slab",
   "link_count": 0,
   "link_to": "Income Tax Slab",
   "link_type": "DocType",
   "onboard": 1,
   "type": "Link"
  },
  {
   "dependencies": "",
   "hidden": 0,
   "is_query_report": 0,
   "label": "Employee Other Income",
   "link_count": 0,
   "link_to": "Employee Other Income",
   "link_type": "DocType",
   "onboard": 1,
   "type": "Link"
  },
  {
   "dependencies": "",
   "hidden": 0,
   "is_query_report": 0,
   "label": "Employee Tax Exemption Declaration",
   "link_count": 0,
   "link_to": "Employee Tax Exemption Declaration",
   "link_type": "DocType",
   "onboard": 1,
   "type": "Link"
  },
  {
   "dependencies": "",
   "hidden": 0,
   "is_query_report": 0,
   "label": "Employee Tax Exemption Proof Submission",
   "link_count": 0,
   "link_to": "Employee Tax Exemption Proof Submission",
   "link_type": "DocType",
   "onboard": 1,
   "type": "Link"
  },
  {
   "dependencies": "",
   "hidden": 0,
   "is_query_report": 0,
   "label": "Employee Tax Exemption Category",
   "link_count": 0,
   "link_to": "Employee Tax Exemption Category",
   "link_type": "DocType",
   "onboard": 0,
   "type": "Link"
  },
  {
   "dependencies": "",
   "hidden": 0,
   "is_query_report": 0,
   "label": "Employee Tax Exemption Sub Category",
   "link_count": 0,
   "link_to": "Employee Tax Exemption Sub Category",
   "link_type": "DocType",
   "onboard": 0,
   "type": "Link"
  },
  {
   "hidden": 0,
   "is_query_report": 0,
   "label": "Compensations",
   "link_count": 0,
   "onboard": 0,
   "type": "Card Break"
  },
  {
   "dependencies": "",
   "hidden": 0,
   "is_query_report": 0,
   "label": "Additional Salary",
   "link_count": 0,
   "link_to": "Additional Salary",
   "link_type": "DocType",
   "onboard": 1,
   "type": "Link"
  },
  {
   "dependencies": "",
   "hidden": 0,
   "is_query_report": 0,
   "label": "Retention Bonus",
   "link_count": 0,
   "link_to": "Retention Bonus",
   "link_type": "DocType",
   "onboard": 1,
   "type": "Link"
  },
  {
   "dependencies": "",
   "hidden": 0,
   "is_query_report": 0,
   "label": "Employee Incentive",
   "link_count": 0,
   "link_to": "Employee Incentive",
   "link_type": "DocType",
   "onboard": 1,
   "type": "Link"
  },
  {
   "dependencies": "",
   "hidden": 0,
   "is_query_report": 0,
   "label": "Employee Benefit Application",
   "link_count": 0,
   "link_to": "Employee Benefit Application",
   "link_type": "DocType",
   "onboard": 0,
   "type": "Link"
  },
  {
   "dependencies": "",
   "hidden": 0,
   "is_query_report": 0,
   "label": "Employee Benefit Claim",
   "link_count": 0,
   "link_to": "Employee Benefit Claim",
   "link_type": "DocType",
   "onboard": 0,
   "type": "Link"
  },
  {
   "hidden": 0,
   "is_query_report": 0,
   "label": "Reports",
   "link_count": 0,
   "onboard": 0,
   "type": "Card Break"
  },
  {
   "dependencies": "Salary Slip",
   "hidden": 0,
   "is_query_report": 1,
   "label": "Salary Register",
   "link_count": 0,
   "link_to": "Salary Register",
   "link_type": "Report",
   "onboard": 0,
   "type": "Link"
  },
  {
   "dependencies": "Salary Slip",
   "hidden": 0,
   "is_query_report": 1,
   "label": "Salary Payments Based On Payment Mode",
   "link_count": 0,
   "link_to": "Salary Payments Based On Payment Mode",
   "link_type": "Report",
   "onboard": 0,
   "type": "Link"
  },
  {
   "dependencies": "Salary Slip",
   "hidden": 0,
   "is_query_report": 1,
   "label": "Salary Payments via ECS",
   "link_count": 0,
   "link_to": "Salary Payments via ECS",
   "link_type": "Report",
   "onboard": 0,
   "type": "Link"
  },
  {
   "dependencies": "Salary Slip",
   "hidden": 0,
   "is_query_report": 1,
   "label": "Income Tax Deductions",
   "link_count": 0,
   "link_to": "Income Tax Deductions",
   "link_type": "Report",
   "onboard": 0,
   "type": "Link"
  },
  {
   "dependencies": "Salary Slip",
   "hidden": 0,
   "is_query_report": 1,
   "label": "Professional Tax Deductions",
   "link_count": 0,
   "link_to": "Professional Tax Deductions",
   "link_type": "Report",
   "onboard": 0,
   "type": "Link"
  },
  {
   "dependencies": "Salary Slip",
   "hidden": 0,
   "is_query_report": 1,
   "label": "Provident Fund Deductions",
   "link_count": 0,
   "link_to": "Provident Fund Deductions",
   "link_type": "Report",
   "onboard": 0,
   "type": "Link"
  },
  {
   "dependencies": "Payroll Entry",
   "hidden": 0,
   "is_query_report": 1,
   "label": "Bank Remittance",
   "link_count": 0,
   "link_to": "Bank Remittance",
   "link_type": "Report",
   "onboard": 0,
   "type": "Link"
  }
 ],
 "modified": "2021-10-02 07:14:32.194059",
 "modified_by": "Administrator",
 "module": "Payroll",
 "name": "Payroll",
 "onboarding": "",
 "owner": "Administrator",
 "parent_page": "",
 "pin_to_bottom": 0,
 "pin_to_top": 0,
 "public": 1,
 "roles": [],
 "sequence_id": 10,
 "shortcuts": [
  {
   "label": "Salary Structure",
   "link_to": "Salary Structure",
   "type": "DocType"
  },
  {
   "label": "Payroll Entry",
   "link_to": "Payroll Entry",
   "type": "DocType"
  },
  {
   "color": "",
   "format": "{} Pending",
   "label": "Salary Slip",
   "link_to": "Salary Slip",
   "stats_filter": "{\"status\": \"Draft\"}",
   "type": "DocType"
  },
  {
   "label": "Income Tax Slab",
   "link_to": "Income Tax Slab",
   "type": "DocType"
  },
  {
   "label": "Salary Register",
   "link_to": "Salary Register",
   "type": "Report"
  },
  {
   "label": "Dashboard",
   "link_to": "Payroll",
   "type": "Dashboard"
  }
 ],
 "title": "Payroll"
}