{
	"allow_import": 1,
	"allow_auto_repeat": 1,
	"autoname": "naming_series:",
	"creation": "2013-05-24 19:29:08",
	"doctype": "DocType",
	"document_type": "Document",
	"editable_grid": 1,
	"engine": "InnoDB",
	"field_order": [
		"customer_section",
		"title",
		"naming_series",
		"quotation_to",
		"party_name",
		"customer_name",
		"column_break1",
		"amended_from",
		"company",
		"transaction_date",
		"valid_till",
		"order_type",
		"contact_section",
		"customer_address",
		"address_display",
		"contact_person",
		"contact_display",
		"contact_mobile",
		"contact_email",
		"col_break98",
		"shipping_address_name",
		"shipping_address",
		"customer_group",
		"territory",
		"currency_and_price_list",
		"currency",
		"conversion_rate",
		"column_break2",
		"selling_price_list",
		"price_list_currency",
		"plc_conversion_rate",
		"ignore_pricing_rule",
		"items_section",
		"items",
		"bundle_items_section",
  		"packed_items",
		"pricing_rule_details",
		"pricing_rules",
		"sec_break23",
		"total_qty",
		"base_total",
		"base_net_total",
		"column_break_28",
		"total",
		"net_total",
		"total_net_weight",
		"taxes_section",
		"tax_category",
		"column_break_34",
		"shipping_rule",
		"section_break_36",
		"taxes_and_charges",
		"taxes",
		"sec_tax_breakup",
		"other_charges_calculation",
		"section_break_39",
		"base_total_taxes_and_charges",
		"column_break_42",
		"total_taxes_and_charges",
		"section_break_44",
		"coupon_code",
		"referral_sales_partner",
		"apply_discount_on",
		"base_discount_amount",
		"column_break_46",
		"additional_discount_percentage",
		"discount_amount",
		"totals",
		"base_grand_total",
		"base_rounding_adjustment",
		"base_in_words",
		"base_rounded_total",
		"column_break3",
		"grand_total",
		"rounding_adjustment",
		"rounded_total",
		"in_words",
		"payment_schedule_section",
		"payment_terms_template",
		"payment_schedule",
		"terms_section_break",
		"tc_name",
		"terms",
		"print_settings",
		"letter_head",
		"group_same_items",
		"column_break_73",
		"select_print_heading",
		"language",
		"subscription_section",
		"auto_repeat",
		"update_auto_repeat_reference",
		"more_info",
		"campaign",
		"source",
		"order_lost_reason",
		"column_break4",
		"status",
		"enq_det",
		"supplier_quotation",
		"opportunity",
		"lost_reasons",
		"competitors"
	],
	"fields": [
		{
			"fieldname": "customer_section",
			"fieldtype": "Section Break",
			"options": "fa fa-user"
		},
		{
			"allow_on_submit": 1,
			"default": "{customer_name}",
			"fieldname": "title",
			"fieldtype": "Data",
			"hidden": 1,
			"label": "Title",
			"no_copy": 1,
			"print_hide": 1
		},
		{
			"fieldname": "naming_series",
			"fieldtype": "Select",
			"label": "Series",
			"no_copy": 1,
			"oldfieldname": "naming_series",
			"oldfieldtype": "Select",
			"options": "SAL-QTN-.YYYY.-",
			"print_hide": 1,
			"reqd": 1,
			"set_only_once": 1
		},
		{
			"default": "Customer",
			"fieldname": "quotation_to",
			"fieldtype": "Link",
			"in_standard_filter": 1,
			"label": "Quotation To",
			"oldfieldname": "quotation_to",
			"oldfieldtype": "Select",
			"options": "DocType",
			"print_hide": 1,
			"reqd": 1
		},
		{
			"bold": 1,
			"fieldname": "party_name",
			"fieldtype": "Dynamic Link",
			"in_global_search": 1,
			"in_standard_filter": 1,
			"label": "Party",
			"oldfieldname": "customer",
			"oldfieldtype": "Link",
			"options": "quotation_to",
			"print_hide": 1,
			"search_index": 1
		},
		{
			"bold": 1,
			"fieldname": "customer_name",
			"fieldtype": "Data",
			"hidden": 1,
			"in_global_search": 1,
			"label": "Customer Name",
			"read_only": 1
		},
		{
			"fieldname": "column_break1",
			"fieldtype": "Column Break",
			"oldfieldtype": "Column Break",
			"width": "50%"
		},
		{
			"fieldname": "amended_from",
			"fieldtype": "Link",
			"ignore_user_permissions": 1,
			"label": "Amended From",
			"no_copy": 1,
			"oldfieldname": "amended_from",
			"oldfieldtype": "Data",
			"options": "Quotation",
			"print_hide": 1,
			"read_only": 1,
			"width": "150px"
		},
		{
			"fieldname": "company",
			"fieldtype": "Link",
			"label": "Company",
			"oldfieldname": "company",
			"oldfieldtype": "Link",
			"options": "Company",
			"print_hide": 1,
			"remember_last_selected_value": 1,
			"reqd": 1,
			"width": "150px"
		},
		{
			"default": "Today",
			"fieldname": "transaction_date",
			"fieldtype": "Date",
			"in_list_view": 1,
			"in_standard_filter": 1,
			"label": "Date",
			"no_copy": 1,
			"oldfieldname": "transaction_date",
			"oldfieldtype": "Date",
			"reqd": 1,
			"search_index": 1,
			"width": "100px"
		},
		{
			"fieldname": "valid_till",
			"fieldtype": "Date",
			"label": "Valid Till"
		},
		{
			"default": "Sales",
			"fieldname": "order_type",
			"fieldtype": "Select",
			"in_standard_filter": 1,
			"label": "Order Type",
			"oldfieldname": "order_type",
			"oldfieldtype": "Select",
			"options": "\nSales\nMaintenance\nShopping Cart",
			"print_hide": 1,
			"reqd": 1
		},
		{
			"collapsible": 1,
			"depends_on": "party_name",
			"fieldname": "contact_section",
			"fieldtype": "Section Break",
			"label": "Address and Contact",
			"options": "fa fa-bullhorn"
		},
		{
			"fieldname": "customer_address",
			"fieldtype": "Link",
			"label": "Customer Address",
			"options": "Address",
			"print_hide": 1
		},
		{
			"fieldname": "address_display",
			"fieldtype": "Small Text",
			"label": "Address",
			"oldfieldname": "customer_address",
			"oldfieldtype": "Small Text",
			"read_only": 1
		},
		{
			"fieldname": "contact_person",
			"fieldtype": "Link",
			"label": "Contact Person",
			"oldfieldname": "contact_person",
			"oldfieldtype": "Link",
			"options": "Contact",
			"print_hide": 1
		},
		{
			"fieldname": "contact_display",
			"fieldtype": "Small Text",
			"in_global_search": 1,
			"label": "Contact",
			"read_only": 1
		},
		{
			"fieldname": "contact_mobile",
			"fieldtype": "Small Text",
			"label": "Mobile No",
			"read_only": 1
		},
		{
			"fieldname": "contact_email",
			"fieldtype": "Data",
			"hidden": 1,
			"label": "Contact Email",
			"options": "Email",
			"print_hide": 1,
			"read_only": 1
		},
		{
			"depends_on": "eval:doc.quotaion_to=='Customer' && doc.party_name",
			"fieldname": "col_break98",
			"fieldtype": "Column Break",
			"width": "50%"
		},
		{
			"fieldname": "shipping_address_name",
			"fieldtype": "Link",
			"label": "Shipping Address",
			"options": "Address",
			"print_hide": 1
		},
		{
			"fieldname": "shipping_address",
			"fieldtype": "Small Text",
			"label": "Shipping Address",
			"print_hide": 1,
			"read_only": 1
		},
		{
			"depends_on": "eval:doc.quotaion_to=='Customer' && doc.party_name",
			"fieldname": "customer_group",
			"fieldtype": "Link",
			"hidden": 1,
			"label": "Customer Group",
			"oldfieldname": "customer_group",
			"oldfieldtype": "Link",
			"options": "Customer Group",
			"print_hide": 1
		},
		{
			"fieldname": "territory",
			"fieldtype": "Link",
			"label": "Territory",
			"options": "Territory",
			"print_hide": 1
		},
		{
			"collapsible": 1,
			"fieldname": "currency_and_price_list",
			"fieldtype": "Section Break",
			"label": "Currency and Price List",
			"options": "fa fa-tag"
		},
		{
			"fieldname": "currency",
			"fieldtype": "Link",
			"label": "Currency",
			"oldfieldname": "currency",
			"oldfieldtype": "Select",
			"options": "Currency",
			"print_hide": 1,
			"reqd": 1,
			"width": "100px"
		},
		{
			"description": "Rate at which customer's currency is converted to company's base currency",
			"fieldname": "conversion_rate",
			"fieldtype": "Float",
			"label": "Exchange Rate",
			"oldfieldname": "conversion_rate",
			"oldfieldtype": "Currency",
			"precision": "9",
			"print_hide": 1,
			"reqd": 1,
			"width": "100px"
		},
		{
			"fieldname": "column_break2",
			"fieldtype": "Column Break",
			"width": "50%"
		},
		{
			"fieldname": "selling_price_list",
			"fieldtype": "Link",
			"label": "Price List",
			"oldfieldname": "price_list_name",
			"oldfieldtype": "Select",
			"options": "Price List",
			"print_hide": 1,
			"reqd": 1,
			"width": "100px"
		},
		{
			"fieldname": "price_list_currency",
			"fieldtype": "Link",
			"label": "Price List Currency",
			"options": "Currency",
			"print_hide": 1,
			"read_only": 1,
			"reqd": 1
		},
		{
			"description": "Rate at which Price list currency is converted to company's base currency",
			"fieldname": "plc_conversion_rate",
			"fieldtype": "Float",
			"label": "Price List Exchange Rate",
			"precision": "9",
			"print_hide": 1,
			"reqd": 1
		},
		{
			"default": "0",
			"fieldname": "ignore_pricing_rule",
			"fieldtype": "Check",
			"label": "Ignore Pricing Rule",
			"no_copy": 1,
			"permlevel": 1,
			"print_hide": 1
		},
		{
			"fieldname": "items_section",
			"fieldtype": "Section Break",
			"oldfieldtype": "Section Break",
			"options": "fa fa-shopping-cart"
		},
		{
			"allow_bulk_edit": 1,
			"fieldname": "items",
			"fieldtype": "Table",
			"label": "Items",
			"oldfieldname": "quotation_details",
			"oldfieldtype": "Table",
			"options": "Quotation Item",
			"reqd": 1,
			"width": "40px"
		},
		{
			"fieldname": "pricing_rule_details",
			"fieldtype": "Section Break",
			"label": "Pricing Rules"
		},
		{
			"fieldname": "pricing_rules",
			"fieldtype": "Table",
			"label": "Pricing Rule Detail",
			"options": "Pricing Rule Detail",
			"read_only": 1
		},
		{
			"fieldname": "sec_break23",
			"fieldtype": "Section Break"
		},
		{
			"fieldname": "total_qty",
			"fieldtype": "Float",
			"label": "Total Quantity",
			"read_only": 1
		},
		{
			"fieldname": "base_total",
			"fieldtype": "Currency",
			"label": "Total (Company Currency)",
			"options": "Company:company:default_currency",
			"print_hide": 1,
			"read_only": 1
		},
		{
			"fieldname": "base_net_total",
			"fieldtype": "Currency",
			"label": "Net Total (Company Currency)",
			"oldfieldname": "net_total",
			"oldfieldtype": "Currency",
			"options": "Company:company:default_currency",
			"print_hide": 1,
			"read_only": 1,
			"width": "100px"
		},
		{
			"fieldname": "column_break_28",
			"fieldtype": "Column Break"
		},
		{
			"fieldname": "total",
			"fieldtype": "Currency",
			"label": "Total",
			"options": "currency",
			"read_only": 1
		},
		{
			"fieldname": "net_total",
			"fieldtype": "Currency",
			"label": "Net Total",
			"options": "currency",
			"print_hide": 1,
			"read_only": 1
		},
		{
			"fieldname": "total_net_weight",
			"fieldtype": "Float",
			"label": "Total Net Weight",
			"print_hide": 1,
			"read_only": 1
		},
		{
			"fieldname": "taxes_section",
			"fieldtype": "Section Break",
			"label": "Taxes and Charges",
			"oldfieldtype": "Section Break",
			"options": "fa fa-money"
		},
		{
			"fieldname": "tax_category",
			"fieldtype": "Link",
			"label": "Tax Category",
			"options": "Tax Category",
			"print_hide": 1
		},
		{
			"fieldname": "column_break_34",
			"fieldtype": "Column Break"
		},
		{
			"fieldname": "shipping_rule",
			"fieldtype": "Link",
			"label": "Shipping Rule",
			"oldfieldtype": "Button",
			"options": "Shipping Rule",
			"print_hide": 1
		},
		{
			"fieldname": "section_break_36",
			"fieldtype": "Section Break"
		},
		{
			"fieldname": "taxes_and_charges",
			"fieldtype": "Link",
			"label": "Sales Taxes and Charges Template",
			"oldfieldname": "charge",
			"oldfieldtype": "Link",
			"options": "Sales Taxes and Charges Template",
			"print_hide": 1
		},
		{
			"fieldname": "taxes",
			"fieldtype": "Table",
			"label": "Sales Taxes and Charges",
			"oldfieldname": "other_charges",
			"oldfieldtype": "Table",
			"options": "Sales Taxes and Charges"
		},
		{
			"collapsible": 1,
			"fieldname": "sec_tax_breakup",
			"fieldtype": "Section Break",
			"label": "Tax Breakup"
		},
		{
			"fieldname": "other_charges_calculation",
			"fieldtype": "Text",
			"label": "Taxes and Charges Calculation",
			"no_copy": 1,
			"oldfieldtype": "HTML",
			"print_hide": 1,
			"read_only": 1
		},
		{
			"fieldname": "section_break_39",
			"fieldtype": "Section Break"
		},
		{
			"fieldname": "base_total_taxes_and_charges",
			"fieldtype": "Currency",
			"label": "Total Taxes and Charges (Company Currency)",
			"oldfieldname": "other_charges_total",
			"oldfieldtype": "Currency",
			"options": "Company:company:default_currency",
			"print_hide": 1,
			"read_only": 1
		},
		{
			"fieldname": "column_break_42",
			"fieldtype": "Column Break"
		},
		{
			"fieldname": "total_taxes_and_charges",
			"fieldtype": "Currency",
			"label": "Total Taxes and Charges",
			"options": "currency",
			"print_hide": 1,
			"read_only": 1
		},
		{
			"collapsible": 1,
			"collapsible_depends_on": "discount_amount",
			"fieldname": "section_break_44",
			"fieldtype": "Section Break",
			"label": "Additional Discount and Coupon Code"
		},
		{
			"fieldname": "coupon_code",
			"fieldtype": "Link",
			"label": "Coupon Code",
			"options": "Coupon Code"
		},
		{
			"fieldname": "referral_sales_partner",
			"fieldtype": "Link",
			"label": "Referral Sales Partner",
			"options": "Sales Partner"
		},
		{
			"default": "Grand Total",
			"fieldname": "apply_discount_on",
			"fieldtype": "Select",
			"label": "Apply Additional Discount On",
			"options": "\nGrand Total\nNet Total",
			"print_hide": 1
		},
		{
			"fieldname": "base_discount_amount",
			"fieldtype": "Currency",
			"label": "Additional Discount Amount (Company Currency)",
			"options": "Company:company:default_currency",
			"print_hide": 1,
			"read_only": 1
		},
		{
			"fieldname": "column_break_46",
			"fieldtype": "Column Break"
		},
		{
			"fieldname": "additional_discount_percentage",
			"fieldtype": "Float",
			"label": "Additional Discount Percentage",
			"print_hide": 1
		},
		{
			"fieldname": "discount_amount",
			"fieldtype": "Currency",
			"label": "Additional Discount Amount",
			"options": "currency",
			"print_hide": 1
		},
		{
			"fieldname": "totals",
			"fieldtype": "Section Break",
			"oldfieldtype": "Section Break",
			"options": "fa fa-money",
			"print_hide": 1
		},
		{
			"fieldname": "base_grand_total",
			"fieldtype": "Currency",
			"label": "Grand Total (Company Currency)",
			"oldfieldname": "grand_total",
			"oldfieldtype": "Currency",
			"options": "Company:company:default_currency",
			"print_hide": 1,
			"read_only": 1,
			"width": "200px"
		},
		{
			"fieldname": "base_rounding_adjustment",
			"fieldtype": "Currency",
			"label": "Rounding Adjustment (Company Currency)",
			"no_copy": 1,
			"options": "Company:company:default_currency",
			"print_hide": 1,
			"read_only": 1
		},
		{
			"description": "In Words will be visible once you save the Quotation.",
			"fieldname": "base_in_words",
			"fieldtype": "Data",
			"label": "In Words (Company Currency)",
			"length": 240,
			"oldfieldname": "in_words",
			"oldfieldtype": "Data",
			"print_hide": 1,
			"read_only": 1,
			"width": "200px"
		},
		{
			"fieldname": "base_rounded_total",
			"fieldtype": "Currency",
			"label": "Rounded Total (Company Currency)",
			"oldfieldname": "rounded_total",
			"oldfieldtype": "Currency",
			"options": "Company:company:default_currency",
			"print_hide": 1,
			"read_only": 1,
			"width": "200px"
		},
		{
			"fieldname": "column_break3",
			"fieldtype": "Column Break",
			"oldfieldtype": "Column Break",
			"print_hide": 1,
			"width": "50%"
		},
		{
			"fieldname": "grand_total",
			"fieldtype": "Currency",
			"in_list_view": 1,
			"label": "Grand Total",
			"oldfieldname": "grand_total_export",
			"oldfieldtype": "Currency",
			"options": "currency",
			"read_only": 1,
			"width": "200px"
		},
		{
			"fieldname": "rounding_adjustment",
			"fieldtype": "Currency",
			"label": "Rounding Adjustment",
			"no_copy": 1,
			"options": "currency",
			"print_hide": 1,
			"read_only": 1
		},
		{
			"bold": 1,
			"fieldname": "rounded_total",
			"fieldtype": "Currency",
			"label": "Rounded Total",
			"oldfieldname": "rounded_total_export",
			"oldfieldtype": "Currency",
			"options": "currency",
			"read_only": 1,
			"width": "200px"
		},
		{
			"fieldname": "in_words",
			"fieldtype": "Data",
			"label": "In Words",
			"length": 240,
			"oldfieldname": "in_words_export",
			"oldfieldtype": "Data",
			"print_hide": 1,
			"read_only": 1,
			"width": "200px"
		},
		{
			"fieldname": "payment_schedule_section",
			"fieldtype": "Section Break",
			"label": "Payment Terms"
		},
		{
			"fieldname": "payment_terms_template",
			"fieldtype": "Link",
			"label": "Payment Terms Template",
			"options": "Payment Terms Template",
			"print_hide": 1
		},
		{
			"fieldname": "payment_schedule",
			"fieldtype": "Table",
			"label": "Payment Schedule",
			"no_copy": 1,
			"options": "Payment Schedule",
			"print_hide": 1
		},
		{
			"collapsible": 1,
			"collapsible_depends_on": "terms",
			"fieldname": "terms_section_break",
			"fieldtype": "Section Break",
			"label": "Terms and Conditions",
			"oldfieldtype": "Section Break",
			"options": "fa fa-legal"
		},
		{
			"fieldname": "tc_name",
			"fieldtype": "Link",
			"label": "Terms",
			"oldfieldname": "tc_name",
			"oldfieldtype": "Link",
			"options": "Terms and Conditions",
			"print_hide": 1,
			"report_hide": 1
		},
		{
			"fieldname": "terms",
			"fieldtype": "Text Editor",
			"label": "Term Details",
			"oldfieldname": "terms",
			"oldfieldtype": "Text Editor"
		},
		{
			"collapsible": 1,
			"fieldname": "print_settings",
			"fieldtype": "Section Break",
			"label": "Print Settings"
		},
		{
			"allow_on_submit": 1,
			"fieldname": "letter_head",
			"fieldtype": "Link",
			"label": "Letter Head",
			"oldfieldname": "letter_head",
			"oldfieldtype": "Select",
			"options": "Letter Head",
			"print_hide": 1
		},
		{
			"allow_on_submit": 1,
			"default": "0",
			"fieldname": "group_same_items",
			"fieldtype": "Check",
			"label": "Group same items",
			"print_hide": 1
		},
		{
			"fieldname": "column_break_73",
			"fieldtype": "Column Break"
		},
		{
			"allow_on_submit": 1,
			"fieldname": "select_print_heading",
			"fieldtype": "Link",
			"label": "Print Heading",
			"no_copy": 1,
			"oldfieldname": "select_print_heading",
			"oldfieldtype": "Link",
			"options": "Print Heading",
			"print_hide": 1,
			"report_hide": 1
		},
		{
			"fieldname": "language",
			"fieldtype": "Data",
			"label": "Print Language",
			"print_hide": 1,
			"read_only": 1
		},
		{
			"fieldname": "subscription_section",
			"fieldtype": "Section Break",
			"label": "Auto Repeat Section"
		},
		{
			"fieldname": "auto_repeat",
			"fieldtype": "Link",
			"label": "Auto Repeat",
			"no_copy": 1,
			"options": "Auto Repeat",
			"print_hide": 1,
			"read_only": 1
		},
		{
			"allow_on_submit": 1,
			"depends_on": "eval: doc.auto_repeat",
			"fieldname": "update_auto_repeat_reference",
			"fieldtype": "Button",
			"label": "Update Auto Repeat Reference"
		},
		{
			"collapsible": 1,
			"fieldname": "more_info",
			"fieldtype": "Section Break",
			"label": "More Information",
			"oldfieldtype": "Section Break",
			"options": "fa fa-file-text",
			"print_hide": 1
		},
		{
			"fieldname": "campaign",
			"fieldtype": "Link",
			"label": "Campaign",
			"oldfieldname": "campaign",
			"oldfieldtype": "Link",
			"options": "Campaign",
			"print_hide": 1
		},
		{
			"fieldname": "source",
			"fieldtype": "Link",
			"label": "Source",
			"oldfieldname": "source",
			"oldfieldtype": "Select",
			"options": "Lead Source",
			"print_hide": 1
		},
		{
			"allow_on_submit": 1,
			"depends_on": "eval:doc.status===\"Lost\"",
			"fieldname": "order_lost_reason",
			"fieldtype": "Small Text",
			"label": "Detailed Reason",
			"no_copy": 1,
			"oldfieldname": "order_lost_reason",
			"oldfieldtype": "Small Text",
			"print_hide": 1
		},
		{
			"fieldname": "column_break4",
			"fieldtype": "Column Break",
			"oldfieldtype": "Column Break",
			"print_hide": 1,
			"width": "50%"
		},
		{
			"default": "Draft",
			"fieldname": "status",
			"fieldtype": "Select",
			"in_list_view": 1,
			"label": "Status",
			"no_copy": 1,
			"oldfieldname": "status",
			"oldfieldtype": "Select",
			"options": "Draft\nOpen\nReplied\nOrdered\nLost\nCancelled\nExpired",
			"print_hide": 1,
			"read_only": 1,
			"reqd": 1
		},
		{
			"fieldname": "enq_det",
			"fieldtype": "Text",
			"hidden": 1,
			"label": "Opportunity Item",
			"oldfieldname": "enq_det",
			"oldfieldtype": "Text",
			"print_hide": 1,
			"read_only": 1
		},
		{
			"fieldname": "supplier_quotation",
			"fieldtype": "Link",
			"label": "Supplier Quotation",
			"options": "Supplier Quotation"
		},
		{
			"fieldname": "opportunity",
			"fieldtype": "Link",
			"label": "Opportunity",
			"options": "Opportunity",
			"print_hide": 1,
			"read_only": 1
		},
		{
			"allow_on_submit": 1,
			"fieldname": "lost_reasons",
			"fieldtype": "Table MultiSelect",
			"label": "Lost Reasons",
			"options": "Quotation Lost Reason Detail",
			"read_only": 1
		},
		{
		 "depends_on": "packed_items",
		 "fieldname": "packed_items",
		 "fieldtype": "Table",
		 "label": "Bundle Items",
		 "options": "Packed Item",
		 "print_hide": 1
		},
		{
		 "collapsible": 1,
		 "collapsible_depends_on": "packed_items",
		 "depends_on": "packed_items",
		 "fieldname": "bundle_items_section",
		 "fieldtype": "Section Break",
		 "label": "Bundle Items",
		 "options": "fa fa-suitcase",
		 "print_hide": 1
		},
		{
		 "allow_on_submit": 1,
		 "fieldname": "competitors",
		 "fieldtype": "Table MultiSelect",
		 "label": "Competitors",
		 "options": "Competitor Detail",
		 "read_only": 1
		}
	],
	"icon": "fa fa-shopping-cart",
	"idx": 82,
	"is_submittable": 1,
	"modified": "2021-10-23 12:58:55.514512",
	"modified_by": "Administrator",
	"module": "Selling",
	"name": "Quotation",
	"naming_rule": "By \"Naming Series\" field",
	"owner": "Administrator",
	"permissions": [
		{
			"amend": 1,
			"cancel": 1,
			"create": 1,
			"delete": 1,
			"email": 1,
			"print": 1,
			"read": 1,
			"report": 1,
			"role": "Sales User",
			"share": 1,
			"submit": 1,
			"write": 1
		},
		{
			"permlevel": 1,
			"read": 1,
			"report": 1,
			"role": "Sales User"
		},
		{
			"permlevel": 1,
			"read": 1,
			"report": 1,
			"role": "Sales Manager",
			"write": 1
		},
		{
			"amend": 1,
			"cancel": 1,
			"create": 1,
			"delete": 1,
			"email": 1,
			"export": 1,
			"import": 1,
			"print": 1,
			"read": 1,
			"report": 1,
			"role": "Sales Manager",
			"share": 1,
			"submit": 1,
			"write": 1
		},
		{
			"amend": 1,
			"cancel": 1,
			"create": 1,
			"delete": 1,
			"email": 1,
			"print": 1,
			"read": 1,
			"report": 1,
			"role": "Maintenance Manager",
			"share": 1,
			"submit": 1,
			"write": 1
		},
		{
			"permlevel": 1,
			"read": 1,
			"report": 1,
			"role": "Maintenance Manager"
		},
		{
			"amend": 1,
			"cancel": 1,
			"create": 1,
			"delete": 1,
			"email": 1,
			"print": 1,
			"read": 1,
			"report": 1,
			"role": "Maintenance User",
			"share": 1,
			"submit": 1,
			"write": 1
		},
		{
			"permlevel": 1,
			"read": 1,
			"report": 1,
			"role": "Maintenance User"
		}
	],
	"search_fields": "status,transaction_date,party_name,order_type",
	"show_name_in_global_search": 1,
	"sort_field": "modified",
	"sort_order": "DESC",
	"timeline_field": "party_name",
	"title_field": "title"
}
